Name,Cycles,D1misses,I1misses,L1-dcache-load-misses,L1-dcache-loads,L1-dcache-stores,L1-icache-load-misses,LLC-loads,LLC_stores,LLdmisses,LLimisses,Time,binsize,cache-misses,cache-references,dTLB-load-misses,dTLB-loads,dTLB-stores,dTLB_store_misses,latency,measured,mem-loads,mem-stores,size,sseavx
final_results/0,82096611,1764,747,20245,17850510,10111062,9105,421,91,1552,736,0.037909018,8,263,1527,1346,15658024,8236184,144,3,3,0,10822132,4,0
final_results/1,76473649,1764,747,22881,17347273,8768694,7440,754,142,1552,736,0.047910425,11,305,2655,864,12989909,7814739,125,2,2,0,10742018,3,0
final_results/10,69111603,1764,747,20775,15749375,7303406,6818,936,139,1552,736,0.045725976,14,456,3406,684,13193490,7948397,127,2,2,0,9577042,3,0
final_results/11,77356950,1764,747,24153,17595206,9882404,8115,611,117,1552,736,0.039723471,14,301,2151,652,13356618,6318412,119,2,2,0,10767619,3,0
final_results/12,76978518,1764,747,22921,17539422,9783143,8619,457,113,1552,736,0.038000992,13,228,2294,672,13395098,6355745,120,2,2,0,10783925,3,0
final_results/13,76840387,1764,747,24701,17399113,9278826,8888,651,119,1552,736,0.047245041,14,338,2956,676,13813674,6886319,125,2,2,0,10679072,3,0
final_results/14,76679037,1764,747,25025,17370498,9170557,7656,807,172,1552,736,0.050913495,14,425,2700,775,12732790,7315611,122,2,2,0,10735709,3,0
final_results/15,77592162,1764,747,21569,17724786,9992089,9659,421,94,1552,736,0.048433756,11,210,1582,791,15027951,6123499,120,2,2,0,10843784,3,0
final_results/16,76773333,1764,747,21319,17259537,9378522,7901,658,133,1552,736,0.045225281,15,328,2371,869,13161627,7371254,122,2,2,0,10788188,3,0
final_results/17,76739004,1764,747,25235,17350603,8503726,7141,869,142,1552,736,0.040730454,14,378,3423,860,12320521,8066637,124,2,2,0,10638463,3,0
final_results/2,77267787,1764,747,21941,17638491,9876921,8508,548,121,1552,736,0.045044691,10,300,1910,867,14098170,6818094,120,2,2,0,10839921,3,0
final_results/3,77447156,1764,747,20950,17698570,9985520,8933,395,106,1552,736,0.042484937,12,218,972,672,14249912,5690710,116,2,2,0,10884811,3,0
final_results/4,47621201,1764,747,16031,11956785,7348388,5904,1203,144,1552,736,0.041268440,11,474,4322,729,14484121,8496391,128,2,2,<not counted>,<not counted>,3,0
final_results/5,77020838,1764,747,22684,17519090,9320241,7832,598,145,1552,736,0.044412580,15,365,2253,767,13309423,7045320,124,2,2,0,10751252,3,0
final_results/6,75295826,1764,747,21741,16817205,7634328,6293,1098,162,1552,736,0.046918517,14,414,3337,668,13187760,7935721,124,2,2,0,10611247,3,0
final_results/7,76608830,1764,747,22497,17104386,8792625,7799,746,148,1552,736,0.043415786,12,414,2865,950,13568166,8141478,124,2,2,0,10727850,3,0
final_results/8,76398786,1764,747,23030,17209700,8776285,7482,894,164,1552,736,0.044780309,10,469,3061,785,13715563,7553134,126,2,2,0,10708534,3,0
final_results/9,77508484,1764,747,22794,17682517,9908317,8519,501,114,1552,736,0.037102218,10,193,1918,878,13308890,6883188,122,2,2,0,10792537,3,0
