Name,Cycles,D1misses,I1misses,L1-dcache-load-misses,L1-dcache-loads,L1-dcache-stores,L1-icache-load-misses,LLC-loads,LLC_stores,LLdmisses,LLimisses,Time,binsize,cache-misses,cache-references,dTLB-load-misses,dTLB-loads,dTLB-stores,dTLB_store_misses,latency,measured,mem-loads,mem-stores,size,sseavx
final_results/0,143314989,1764,747,19478,32531274,17805125,7094,1736,237,1552,736,0.082046622,11,556,4418,1100,29653930,18267323,171,5,5,0,19042205,6,0
final_results/1,144276017,1764,747,21264,32828834,18676849,9731,988,170,1552,736,0.087712022,12,488,3167,985,29428352,15420423,161,3,3,0,19177527,4,0
final_results/10,142542434,1764,747,20330,32389282,18382604,7915,1531,197,1552,736,0.089888299,7,436,3953,1137,29945982,17302885,179,3,3,0,18452748,4,0
final_results/11,145048917,1764,747,19438,32684524,17550987,7112,1741,228,1552,736,0.084139376,10,515,4221,1116,29741331,18318556,182,3,3,0,18748657,4,0
final_results/12,147139239,1764,747,19626,32920539,16721149,6831,1755,213,1552,736,0.061135906,8,547,4557,1066,28856454,18212689,172,3,3,0,19352665,4,0
final_results/13,144126353,1764,747,19885,32460264,17299601,6919,1832,228,1552,736,0.079510922,12,578,4578,1062,29193760,18235092,170,4,4,0,19316677,5,0
final_results/14,140542870,1764,747,18389,32257197,17561991,7402,1867,244,1552,736,0.093297404,15,557,4238,1105,30382848,17501806,167,4,4,0,18327771,5,0
final_results/15,143436659,1764,747,17945,32341226,16038936,6992,1944,255,1552,736,0.087596159,16,631,4718,1061,29704000,18506826,173,4,4,0,19207444,5,0
final_results/16,144587513,1764,747,18456,32693124,17238403,7544,1506,206,1552,736,0.082350168,18,425,3412,1050,30206349,16876933,170,4,4,0,18826161,5,0
final_results/17,144831165,1764,747,21537,32585437,17459305,6841,1900,236,1552,736,0.084298919,15,557,4990,1034,28476281,18043372,166,4,4,0,19390309,5,0
final_results/18,142771863,1764,747,19989,32526662,17828472,7011,1619,193,1552,736,0.092208001,13,475,4231,1110,29703053,18328524,175,4,4,0,19137794,5,0
final_results/19,144344379,1764,747,19016,32587549,17085929,7030,1686,216,1552,736,0.088412038,16,503,4076,1111,29695145,18294614,177,4,4,0,18704027,5,0
final_results/2,142608284,1764,747,18872,32594931,18074764,8215,1539,219,1552,736,0.081191447,12,494,3569,1173,30681687,17661252,181,3,3,0,18418941,4,0
final_results/20,143658637,1764,747,18938,32145204,16215823,6911,1958,240,1552,736,0.084185073,16,644,5176,1023,29092353,18392386,169,4,4,0,19383574,5,0
final_results/21,141251728,1764,747,18308,32352825,17949450,8244,1230,175,1552,736,0.083215437,14,408,2730,1140,30942992,16920282,168,4,4,0,18822681,5,0
final_results/22,147058920,1764,747,19307,33165698,17018275,7118,1731,212,1552,736,0.077103751,7,515,4286,1006,29596467,17678473,167,3,3,0,19299612,4,0
final_results/23,141398387,1764,747,18327,32413433,18023995,7476,1895,226,1552,736,0.091401247,8,442,3429,1158,30563742,18399443,184,3,3,0,18689809,4,0
final_results/3,145311695,1764,747,20799,32740717,17710285,6933,1811,233,1552,736,0.060239917,16,555,4604,1084,29011683,18100107,174,4,4,0,19033116,5,0
final_results/4,146682513,1764,747,21534,33261952,18722270,9079,1090,165,1552,736,0.085162363,10,344,3151,1019,28715139,15597003,148,4,4,0,19233297,5,0
final_results/5,143423098,1764,747,20090,32882604,18418874,8449,1525,206,1552,736,0.076978750,8,357,3205,1106,29047986,17023658,163,3,3,0,18494592,4,0
final_results/6,141807311,1764,747,21190,32311029,18822488,10115,1033,167,1552,736,0.075012729,12,446,3018,968,27873002,15200796,156,4,4,0,18361077,5,0
final_results/7,142241256,1764,747,18582,32402126,17989418,7676,1678,234,1552,736,0.079405125,7,508,3505,1105,30335765,17685456,172,3,3,0,18461648,4,0
final_results/8,142738927,1764,747,17603,32447600,17288825,7411,1755,222,1552,736,0.091460261,10,435,3555,1122,30616105,17792087,175,4,4,0,18896535,5,0
final_results/9,144631241,1764,747,20641,32746078,18004038,7222,1752,224,1552,736,0.079363467,8,602,4542,1127,29275861,18036937,172,3,3,0,18723842,4,0
