Name,Cycles,D1misses,I1misses,L1-dcache-load-misses,L1-dcache-loads,L1-dcache-stores,L1-icache-load-misses,LLC-loads,LLC_stores,LLdmisses,LLimisses,Time,binsize,cache-misses,cache-references,dTLB-load-misses,dTLB-loads,dTLB-stores,dTLB_store_misses,latency,measured,mem-loads,mem-stores,size,sseavx
final_results/0,162817910,1764,748,20738,33735100,18593956,9435,725,179,1552,737,0.086568811,18,390,3893,1024,29911940,16325405,168,7,7,0,19521829,8,0
final_results/1,157604077,1764,748,19746,33248222,18030010,7757,1481,275,1552,737,0.093442381,18,474,4434,1050,28482797,17708041,172,4,4,0,19051876,5,0
final_results/10,158561726,1764,748,20993,33274175,18415770,8716,1241,201,1552,737,0.083960738,20,446,3847,1006,29882129,16753366,158,4,4,0,19363132,5,0
final_results/11,152806492,1764,748,19589,32738626,18311573,7992,1170,186,1552,737,0.098862440,13,375,3379,1130,29412282,17056790,171,3,3,0,19322682,4,0
final_results/12,149810691,1764,748,18675,32129783,18197863,8122,1566,216,1552,737,0.096249492,16,377,3737,1157,30754171,17739613,180,4,4,0,18373532,5,0
final_results/13,154249855,1764,748,20336,32817524,18021918,7440,1361,256,1552,737,0.095878512,12,596,4900,1035,28262857,17602090,171,3,3,0,19474855,4,0
final_results/14,152007561,1764,748,20506,32555886,18393878,8547,1896,202,1552,737,0.079382197,12,444,3568,1006,29742954,16136040,160,3,3,0,18982202,4,0
final_results/15,151217080,1764,748,18911,32558892,18666442,7905,1640,210,1552,737,0.080927474,12,337,2728,1242,30095465,17938776,187,3,3,0,18562635,4,0
final_results/16,157970524,1764,748,19186,33152209,18229540,8256,1054,214,1552,737,0.078781065,20,415,4201,1025,28658514,16892357,164,5,5,0,19044692,6,0
final_results/17,157713590,1764,748,20074,33332313,18501796,8206,1043,192,1552,737,0.088056104,15,308,3520,1027,28352136,16788650,167,4,4,0,19201370,5,0
final_results/18,160440446,1764,748,20129,33442941,18564959,8698,1088,195,1552,737,0.091942642,21,424,4038,1055,30115021,17127982,172,5,5,0,19180230,6,0
final_results/19,153054545,1764,748,18966,32434322,18528175,8413,1273,222,1552,737,0.085625517,21,390,4031,1128,29707074,17318400,165,5,5,0,18447178,6,0
final_results/2,156763376,1764,748,20940,32893525,18123063,7895,954,243,1552,737,0.099732895,14,505,4885,1017,27402940,17272800,168,3,3,0,19087930,4,0
final_results/20,156201262,1764,748,20541,32877373,18518032,8251,1259,197,1552,737,0.100018789,19,421,3935,1090,29511794,17381398,173,4,4,0,18884957,5,0
final_results/21,155175048,1764,748,19542,33400714,18423251,7537,1434,208,1552,737,0.092202449,14,492,3557,1071,29249221,17126611,175,3,3,0,19024875,4,0
final_results/22,163341667,1764,748,20301,33357919,18519079,8914,855,197,1552,737,0.101075724,16,410,4016,1044,29708634,16656760,158,4,4,0,19381850,5,0
final_results/23,150950273,1764,748,19389,32514636,18363705,8085,1203,209,1552,737,0.096765828,14,324,3597,1069,28778371,16841842,177,3,3,0,18396066,4,0
final_results/24,148694259,1764,748,19932,32440431,18668022,9079,1469,169,1552,737,0.085845262,14,352,2961,989,30781022,15853389,160,3,3,0,18622461,4,0
final_results/25,158295215,1764,748,21110,33549888,18234888,7838,1203,248,1552,737,0.074535822,14,421,4439,1019,27805096,17427275,177,3,3,0,19444863,4,0
final_results/26,158664221,1764,748,21601,33329812,18195634,8000,1200,256,1552,737,0.090988642,14,489,4748,1035,28004122,17266863,175,3,3,0,19411839,4,0
final_results/27,156538192,1764,748,20447,33088742,18324402,7610,1484,198,1552,737,0.090418176,12,379,3928,1057,28930943,17587392,179,3,3,0,19155345,4,0
final_results/28,163062594,1764,748,21032,33539955,18468119,9255,884,205,1552,737,0.097092872,20,429,4017,920,29636888,16009661,162,6,6,0,19499727,7,0
final_results/29,154256840,1764,748,21263,33248930,18607848,9553,1232,172,1552,737,0.095644356,13,370,3267,906,30696712,15321195,154,3,3,0,18986348,4,0
final_results/3,159965223,1764,748,21022,33453858,18315703,8016,1053,227,1552,737,0.088814812,19,339,3987,1011,27754503,16689112,172,4,4,0,19628283,5,0
final_results/30,159840221,1764,748,20440,33542228,18419864,8340,1014,202,1552,737,0.080984617,12,449,4109,1032,28524782,17347128,173,3,3,0,19365636,4,0
final_results/31,149990050,1764,748,19388,32568048,18538650,7403,1733,238,1552,737,0.087994031,12,407,3661,1109,29175188,17744761,178,3,3,0,18851829,4,0
final_results/32,160066951,1764,748,21071,33381326,18238217,7849,1058,245,1552,737,0.087329594,23,490,4638,1033,27222961,17195741,168,6,6,0,19569002,7,0
final_results/33,153790042,1764,748,20398,32513319,18232962,7299,1527,244,1552,737,0.081151549,18,431,4620,1028,27900776,17488312,167,4,4,0,19332975,5,0
final_results/34,158072000,1764,748,20062,33287861,18476026,7920,1028,223,1552,737,0.084605491,19,465,4376,1097,28147761,17448037,181,4,4,0,19234752,5,0
final_results/35,156297820,1764,748,20555,33046253,18264138,7622,1415,230,1552,737,0.091765646,12,415,4227,1062,28316261,17656118,176,3,3,0,19268703,4,0
final_results/36,154806189,1764,748,19324,33348707,18656866,8138,1283,195,1552,737,0.094939222,12,285,2826,1249,29946256,17906000,174,3,3,0,18868193,4,0
final_results/37,156531379,1764,748,21293,32871182,18403646,8291,851,227,1552,737,0.095947772,12,420,4940,1024,27581052,17069390,165,3,3,0,19636361,4,0
final_results/38,155817453,1764,748,20709,32743700,18459076,8585,1237,231,1552,737,0.101148012,31,472,4771,1062,29184242,17081793,173,6,6,0,19414990,7,0
final_results/39,156697861,1764,748,19926,33312650,18462894,8060,1360,207,1552,737,0.092889753,18,339,3691,1096,29416051,17677845,175,4,4,0,18870398,5,0
final_results/4,155314735,1764,748,20149,33331418,18494312,8246,1042,173,1552,737,0.091706076,16,364,2936,924,27170671,15645065,153,3,3,0,19175864,4,0
final_results/40,157663540,1764,748,21054,33492330,18340754,7661,1221,218,1552,737,0.074019665,16,388,4400,1054,27908147,17518126,175,3,3,0,19360625,4,0
final_results/41,149317856,1764,748,20020,32217799,18418920,8149,1532,242,1552,737,0.091009522,16,400,4211,1115,29703966,17424719,166,3,3,0,18829565,4,0
final_results/42,155107275,1764,748,19613,32977171,18586219,8590,1289,207,1552,737,0.089084258,12,503,4049,1146,30548324,17189303,165,3,3,0,18713314,4,0
final_results/43,156974585,1764,748,20188,33127480,18426983,7967,1241,266,1552,737,0.087967658,19,428,4039,1093,28183388,17516787,176,4,4,0,19056336,5,0
final_results/44,155780769,1764,748,19035,33464034,18801153,9044,1125,179,1552,737,0.095008210,14,347,2397,1204,30555314,16785735,170,3,3,0,18816535,4,0
final_results/45,149029516,1764,748,19256,32254896,18535080,8153,1457,198,1552,737,0.095621337,14,350,3409,1050,30081404,16592516,171,3,3,0,18586069,4,0
final_results/46,151912343,1764,748,20162,32517538,17793374,7094,2063,258,1552,737,0.078685407,13,452,4149,1113,28981833,17928040,179,3,3,0,19062540,4,0
final_results/47,156430618,1764,748,20276,33430356,18371783,8003,1110,216,1552,737,0.095696829,13,446,4007,1056,28214976,17501144,176,3,3,0,19121495,4,0
final_results/48,156798189,1764,748,19848,33028425,18404778,8136,1300,200,1552,737,0.095039303,17,418,3445,1115,29029811,17142670,165,4,4,0,19066642,5,0
final_results/49,152768497,1764,748,21407,32550927,18422733,10809,875,155,1552,737,0.082819903,20,348,3496,823,31440584,14509641,150,4,4,0,19105518,5,0
final_results/5,158275120,1764,748,20262,33347505,18386752,7923,1392,233,1552,737,0.092027545,23,444,4258,1081,28180941,17530003,174,4,4,0,19021596,5,0
final_results/50,155283021,1764,748,20102,33112538,17861790,7298,1571,226,1552,737,0.088458441,14,495,3875,1085,28613845,17797093,178,3,3,0,19118123,4,0
final_results/51,157691170,1764,748,20717,33129712,18163927,7523,1297,240,1552,737,0.090844674,16,574,4757,1026,27629839,17417631,168,4,4,0,19322273,5,0
final_results/52,154118224,1764,748,19069,32893235,18368966,7791,1525,224,1552,737,0.088988868,17,423,3998,1058,29194436,17069882,173,4,4,0,18636695,5,0
final_results/53,152796616,1764,748,20219,32326434,18418157,8339,932,203,1552,737,0.098561102,18,432,4346,1077,29329452,17332335,181,4,4,0,19034406,5,0
final_results/54,158171422,1764,748,19879,33031374,17997574,7744,1286,199,1552,737,0.098196529,10,377,4448,1018,28980154,17446270,171,3,3,0,19416703,4,0
final_results/55,153431191,1764,748,20856,32769115,18434457,7811,1087,224,1552,737,0.080142272,10,533,4704,1070,27624616,17205854,168,3,3,0,19441750,4,0
final_results/56,156301268,1764,748,20828,33222011,18372906,8265,1140,198,1552,737,0.092764286,10,361,3860,1037,28701169,17100120,161,3,3,0,19376570,4,0
final_results/57,153067196,1764,748,20505,32754405,18478386,8026,1034,224,1552,737,0.088203854,13,481,4216,1092,28116452,17402696,168,3,3,0,19277229,4,0
final_results/58,156326178,1764,748,21148,33389370,18697443,9356,740,176,1552,737,0.092570385,12,372,3393,948,27723908,15340429,158,3,3,0,19308922,4,0
final_results/59,158657384,1764,748,20444,33063607,18527541,9088,1296,182,1552,737,0.085530780,19,349,3309,1044,30203493,16796234,157,5,5,0,19005293,6,0
final_results/6,156622713,1764,748,19066,33280940,18235888,7946,1678,206,1552,737,0.089602102,23,408,3350,1164,30373074,17947034,175,4,4,0,18645720,5,0
final_results/60,157499104,1764,748,21328,33285023,18498274,9270,1065,196,1552,737,0.081736973,17,394,3864,986,29539906,16269487,152,4,4,0,19298053,5,0
final_results/61,159179756,1764,748,20268,33509868,18404218,7881,827,210,1552,737,0.095458076,19,519,4261,987,27754423,16589436,167,4,4,0,19518018,5,0
final_results/62,157649135,1764,748,20792,33396413,18224829,7648,896,223,1552,737,0.091012290,17,449,4347,1029,27408704,17266345,174,3,3,0,19502505,4,0
final_results/63,155063087,1764,748,20327,33082610,18210462,7276,1738,245,1552,737,0.073207658,10,466,4008,1047,28540938,17741743,172,3,3,0,18977062,4,0
final_results/64,157565019,1764,748,21187,33397441,18178653,7845,950,212,1552,737,0.096144732,11,501,4320,1035,27335689,17281475,167,3,3,0,19565931,4,0
final_results/65,154905974,1764,748,19914,33175702,18455630,7889,1438,212,1552,737,0.094497618,14,398,3338,1108,29233518,17056921,164,3,3,0,19049763,4,0
final_results/66,153131839,1764,748,19952,32972022,18677657,9742,1155,158,1552,737,0.088952195,10,409,3203,938,30911706,15133736,163,3,3,0,18692460,4,0
final_results/67,154814965,1764,748,19174,32927161,18561198,8664,1327,198,1552,737,0.100164644,20,355,3536,1114,30034728,17512597,173,4,4,0,18829693,5,0
final_results/68,161482881,1764,748,19255,32958291,18831252,9063,1105,191,1552,737,0.096692830,22,451,3268,1115,30927994,16496400,164,5,5,0,19183782,6,0
final_results/69,152831569,1764,748,19672,32699926,18444190,8355,1342,186,1552,737,0.084242138,19,389,3113,1176,30372043,17627762,166,4,4,0,18511428,5,0
final_results/7,159026188,1764,748,21538,33517666,18126350,7570,1115,270,1552,737,0.084945195,19,485,4841,1009,27058534,17267822,164,3,3,0,19655475,4,0
final_results/70,160368235,1764,748,20590,33325796,18070285,8222,814,246,1552,737,0.092213532,11,545,4957,992,27834481,17272956,170,3,3,0,19648400,4,0
final_results/8,153189470,1764,748,19548,32415175,18152662,7911,1354,205,1552,737,0.086516943,23,472,3700,1168,29308632,17864151,178,5,5,0,19009017,6,0
final_results/9,154210369,1764,748,19197,32602326,18391542,8112,1284,234,1552,737,0.100615791,22,431,4455,1017,29431396,17096029,172,5,5,0,18416328,6,0
