Name,Cycles,D1misses,I1misses,L1-dcache-load-misses,L1-dcache-loads,L1-dcache-stores,L1-icache-load-misses,LLC-loads,LLC_stores,LLdmisses,LLimisses,Time,binsize,cache-misses,cache-references,dTLB-load-misses,dTLB-loads,dTLB-stores,dTLB_store_misses,latency,measured,mem-loads,mem-stores,size,sseavx
final_results/0,205149283,1764,747,16534,47377395,28055752,8787,1754,222,1552,736,0.115129444,19,325,2008,1420,48610383,27459616,204,13,13,0,26203135,10,0
final_results/1,202105929,1764,747,16582,46526743,27655267,8638,1646,235,1552,736,0.124434075,23,325,2462,1350,47886923,26726264,184,11,11,0,26736950,10,0
final_results/10,204920144,1764,747,18128,47759386,27745897,8647,1467,154,1552,736,0.122006760,20,314,1718,1336,48306873,26896567,201,9,9,0,26926855,8,0
final_results/11,206240019,1764,747,17737,47645987,27638914,8183,1911,208,1552,736,0.121696421,18,265,2264,1346,47267298,27043365,195,12,12,0,27280225,9,0
final_results/12,206701541,1764,747,17615,48173287,27952126,8743,1613,178,1552,736,0.122266889,23,350,1860,1411,48466792,27391832,208,10,10,0,26793264,9,0
final_results/13,202398237,1764,747,17666,47642162,27859621,8290,1713,186,1552,736,0.121057107,20,455,2460,1372,48213200,27141999,193,9,9,0,25662763,8,0
final_results/14,201546970,1764,747,16897,46539766,27487946,8497,1819,198,1552,736,0.113296910,22,363,2332,1379,48173456,27381819,203,10,10,0,26443299,9,0
final_results/15,212516276,1764,747,17873,49075626,28342671,8783,1978,188,1552,736,0.129963032,23,260,1522,1319,48038631,26133834,191,11,11,0,27255182,10,0
final_results/16,195704127,1764,747,16637,46132341,27331655,8056,1957,230,1552,736,0.123238084,20,407,2851,1303,48060206,26829875,195,10,10,0,26190062,9,0
final_results/17,209688649,1764,747,18142,49353485,28243341,8594,1936,214,1552,736,0.116054789,21,330,1476,1408,47831052,27000117,196,9,9,0,27467066,8,0
final_results/18,193477842,1764,747,15981,45249544,27320034,8170,2171,290,1552,736,0.109459226,28,451,3188,1354,48187579,27446528,195,11,11,0,26318936,10,0
final_results/19,204417627,1764,747,18178,48354250,28006788,8475,2038,191,1552,736,0.116331107,27,425,2116,1380,48169159,27161885,196,8,8,0,27464818,9,0
final_results/2,209741592,1764,747,17265,48417714,28232609,8739,1914,202,1552,736,0.118251655,20,265,1496,1343,48038989,26701777,206,10,10,0,26790096,9,0
final_results/20,207580645,1764,747,18043,48665263,27963647,8851,1330,180,1552,736,0.112118349,23,395,1937,1421,47829119,26860744,199,7,7,0,26397075,8,0
final_results/21,215963019,1764,747,18336,49950210,28747586,8907,2045,183,1552,736,0.114069639,24,316,1101,1387,48151087,26561940,207,11,11,0,26936564,10,0
final_results/22,206445987,1764,747,16225,47793853,28278875,8679,1984,259,1552,736,0.125659098,24,300,2402,1308,48575054,26980276,202,11,11,0,25594219,10,0
final_results/23,207452594,1764,747,17169,47878767,27965155,8610,1676,209,1552,736,0.099913103,20,322,2268,1324,47944397,26770316,192,10,10,0,26727844,9,0
final_results/24,210116019,1764,747,18313,49048101,28187746,8678,1975,182,1552,736,0.123446802,23,301,1649,1352,48042315,26672960,200,8,8,0,26660874,9,0
final_results/25,211307096,1764,747,18082,48726169,27892585,9088,1059,158,1552,736,0.127218592,21,254,1351,1421,48187962,26942182,208,7,7,0,27815446,8,0
final_results/26,213999988,1764,747,18015,48850669,28303130,9130,1508,186,1552,736,0.114441685,26,358,1528,1359,48189063,26380813,198,11,11,0,26735783,10,0
final_results/27,204011416,1764,747,16427,47488856,28101776,8433,2105,246,1552,736,0.106524575,25,328,1881,1390,48375552,27278305,189,10,10,0,26150792,9,0
final_results/28,215615070,1764,747,18070,49917464,28770276,8866,2342,229,1552,736,0.118983247,23,358,1233,1368,48225350,26574749,208,11,11,0,26839762,10,0
final_results/29,207426993,1764,747,16718,48128256,28447343,8795,2213,258,1552,736,0.129778588,21,358,1856,1359,48334917,26721290,202,10,10,0,26508702,9,0
final_results/3,210296113,1764,747,17675,48733962,28323136,8731,1895,187,1552,736,0.117861630,23,276,1569,1334,48330808,26858329,201,10,10,0,26904272,9,0
final_results/30,214301841,1764,747,17646,48432730,27994011,8940,1669,174,1552,736,0.126054230,23,290,1316,1424,48280734,27362466,211,11,11,0,26707228,10,0
final_results/31,210522554,1764,747,18162,48703305,28169470,9142,1182,168,1552,736,0.117309902,23,233,1630,1364,47548778,27279647,192,8,8,0,26583786,9,0
final_results/32,205668108,1764,747,17663,48461561,28097602,8374,1652,174,1552,736,0.115178630,20,323,1858,1391,48083674,27049516,196,7,7,0,26858717,8,0
final_results/33,199850177,1764,747,16754,46569303,27640815,8419,2133,212,1552,736,0.102027038,23,301,2421,1400,48362086,27323019,197,11,11,0,26251034,10,0
final_results/34,203243959,1764,747,16780,47296874,27860664,8611,1972,246,1552,736,0.109467591,21,326,1970,1306,48017599,26820127,199,10,10,0,26631912,9,0
final_results/35,212444641,1764,747,18139,49207523,28120847,8643,1287,149,1552,736,0.128450845,25,260,1369,1463,47925905,27091782,192,8,8,0,27784025,9,0
final_results/36,209467311,1764,747,17559,49121745,28273025,8794,1522,174,1552,736,0.105924438,25,288,1466,1386,47957227,27028852,201,8,8,0,27185848,9,0
final_results/37,208430914,1764,747,18255,49298263,28452721,8567,2150,172,1552,736,0.099363809,21,337,1500,1394,48372908,27156374,196,7,7,0,27073340,8,0
final_results/38,210178452,1764,747,17154,48330321,28155316,8725,1866,208,1552,736,0.130261969,22,322,1410,1426,48181658,27260519,204,11,11,0,26937151,10,0
final_results/39,213753811,1764,747,18136,48882049,28234120,9202,1865,198,1552,736,0.114652152,25,353,1509,1490,48556379,27424787,206,11,11,0,26408991,10,0
final_results/4,200896067,1764,747,16733,46694482,27578320,8212,2005,221,1552,736,0.109325471,19,376,2228,1295,47982214,26780541,196,12,12,0,26431539,9,0
final_results/40,210051337,1764,747,17594,48316954,27960654,8723,1526,175,1552,736,0.124694398,22,262,1717,1379,48131208,26855418,202,10,10,0,26733498,9,0
final_results/41,208350782,1764,747,18163,47930658,27790305,8750,1947,209,1552,736,0.130657277,22,398,2310,1224,47944706,25975360,189,12,12,0,27626862,9,0
final_results/42,206555665,1764,747,17052,47601808,27780445,8578,1932,228,1552,736,0.113850380,21,423,2183,1298,47977103,26763959,205,10,10,0,27310920,9,0
final_results/43,203901634,1764,747,16500,47317750,28004112,8524,1871,245,1552,736,0.125099907,21,295,1984,1373,48372880,27314063,196,10,10,0,26844967,9,0
final_results/44,205559403,1764,747,16992,47658413,27865335,8350,1948,196,1552,736,0.120221325,21,252,1855,1330,47991386,26737998,196,10,10,0,27068928,9,0
final_results/45,205108100,1764,747,17324,47537706,27811132,8417,1816,191,1552,736,0.124308897,18,272,1907,1368,48088398,27297072,201,12,12,0,26886969,9,0
final_results/46,213008811,1764,747,18969,49746250,28477264,9146,1687,171,1552,736,0.103964295,21,226,1365,1396,47756438,26511810,197,10,10,0,27085346,9,0
final_results/47,203351632,1764,747,17371,47469338,27761174,8693,1555,226,1552,736,0.103850665,21,330,2473,1370,47425923,27154536,198,10,10,0,26369926,9,0
final_results/48,210233480,1764,747,17985,49392608,28271331,8781,1557,172,1552,736,0.092474187,19,245,1435,1329,47858256,26629837,197,9,9,0,27261178,8,0
final_results/5,214465680,1764,747,18226,48648449,27775974,9045,866,126,1552,736,0.097595473,18,259,1322,1390,48029340,26996786,208,12,12,0,27334721,9,0
final_results/6,210292105,1764,747,16583,48467391,28310303,8694,2070,260,1552,736,0.125013912,25,407,2008,1414,48295851,27101767,199,12,12,0,26869944,11,0
final_results/7,203266592,1764,747,16777,47141524,27904134,8419,2035,254,1552,736,0.107512135,23,427,2559,1310,48206993,26728283,186,11,11,0,26082108,10,0
final_results/8,205609979,1764,747,16945,47568376,27994473,8681,1904,272,1552,736,0.120323873,20,516,2634,1311,48004574,26443738,197,10,10,0,26240132,9,0
final_results/9,216804186,1764,747,17989,50116104,28696622,8665,1981,214,1552,736,0.103237454,17,313,1120,1334,48001917,26556567,197,12,12,0,27113102,9,0
