Name,Cycles,D1misses,I1misses,L1-dcache-load-misses,L1-dcache-loads,L1-dcache-stores,L1-icache-load-misses,LLC-loads,LLC_stores,LLdmisses,LLimisses,Time,binsize,cache-misses,cache-references,dTLB-load-misses,dTLB-loads,dTLB-stores,dTLB_store_misses,latency,measured,mem-loads,mem-stores,size,sseavx
final_results/0,93647613,1764,747,18762,17978768,10271932,8482,447,90,1552,736,0.056971170,21,196,834,1420,16492926,9199889,187,1008,1008,0,10016897,11,0
final_results/1,94695368,1764,747,19000,17807551,10226040,8293,1049,117,1552,736,0.062030057,21,270,1076,1312,15778776,8989267,173,1007,1007,0,9800545,10,0
final_results/10,93197880,1764,747,22007,17657418,9941059,7996,712,116,1552,736,0.046266949,21,300,1714,1076,14658454,8080512,150,1006,1006,0,10372415,9,0
final_results/11,136128213,1764,747,17364,16867311,9083848,7656,1480,193,1552,736,0.083842970,23,454,3449,1144,16080916,9467223,181,1005,1005,0,10102251,8,0
final_results/12,92634159,1764,747,18385,17987698,10278940,8435,526,101,1552,736,0.059552128,20,258,812,1280,16384030,8821459,180,1007,1007,0,9887629,10,0
final_results/13,92544974,1764,747,19049,17915750,10228178,8674,570,100,1552,736,0.063280480,20,241,821,1198,16125291,8405383,173,1006,1006,0,10030958,9,0
final_results/14,96155942,1764,747,21779,17560627,9965582,9290,802,126,1552,736,0.053296925,21,329,2103,1120,15615778,8188262,143,1007,1007,0,10373777,10,0
final_results/15,94878436,1764,747,19880,17754683,10150568,8833,922,124,1552,736,0.061716855,22,319,1109,1136,15482868,8221296,161,1006,1006,0,10006953,9,0
final_results/16,93401377,1764,747,22560,17678938,9561884,8238,682,150,1552,736,0.059379832,20,432,2434,1003,13941351,8344482,143,1007,1007,0,10279611,10,0
final_results/17,93171128,1764,747,20576,17764607,10110984,9197,512,116,1552,736,0.050546241,21,332,1534,1176,15420969,8327925,152,1006,1006,0,10318929,9,0
final_results/18,93280940,1764,747,24295,17213579,8670362,6928,1061,170,1552,736,0.050569264,22,463,3346,955,12042873,8696410,134,1005,1005,0,10464720,8,0
final_results/19,94614715,1764,747,17927,17852261,10280185,8125,1022,95,1552,736,0.055474576,20,156,678,1436,16516293,9491757,188,1007,1007,0,9673528,10,0
final_results/2,93590315,1764,747,19150,17856675,10187153,8854,530,98,1552,736,0.060492684,21,249,1089,1333,16143039,8783454,184,1006,1006,0,10242302,9,0
final_results/20,92834895,1764,747,24188,17374365,9120573,7478,981,131,1552,736,0.060839230,21,364,2757,900,13552485,8040660,138,1006,1006,0,10602620,9,0
final_results/21,93332628,1764,747,20044,17786908,10134188,9216,510,113,1552,736,0.055036740,20,293,1412,1175,16029555,8147071,156,1007,1007,0,10332712,10,0
final_results/22,93005850,1764,747,19776,17780295,10128972,8825,573,108,1552,736,0.054930965,22,240,1406,1151,15386334,8269221,173,1006,1006,0,10196559,9,0
final_results/23,92806988,1764,747,25842,17366895,9257013,8226,880,159,1552,736,0.063567138,22,421,2996,856,12942435,7849252,134,1005,1005,0,10534270,8,0
final_results/24,94227482,1764,747,20264,17820402,10151640,8904,595,120,1552,736,0.054826808,19,302,1226,1189,15358912,8156637,177,1007,1007,0,10320044,10,0
final_results/25,84272530,1764,747,20874,16086786,8408852,7644,880,140,1552,736,0.049474600,20,298,2249,1040,14338178,8649335,149,1006,1006,0,9380228,9,0
final_results/26,140396042,1764,747,18588,16750045,8556546,6632,1964,248,1552,736,0.087246667,26,544,5219,1022,15371624,9876039,170,1005,1005,0,9923420,8,0
final_results/27,93356621,1764,747,19893,17786941,10136407,8641,551,111,1552,736,0.057961438,22,298,1442,1229,15649253,8709279,180,1007,1007,0,10235771,10,0
final_results/28,76004807,1764,747,19159,14880041,8098543,7056,995,163,1552,736,0.058756317,24,361,3167,1024,14440343,9110676,143,1006,1006,0,8262734,9,0
final_results/29,93481789,1764,747,20750,17698705,9969655,8672,693,124,1552,736,0.060565653,21,264,1839,1176,15480461,8355659,161,1005,1005,0,10321215,8,0
final_results/3,93360000,1764,747,18276,18027223,10309120,8048,490,88,1552,736,0.045376649,22,218,850,1478,16528182,9493525,204,1005,1005,0,9925987,8,0
final_results/30,92102366,1764,747,20170,17161267,8980026,7701,950,145,1552,736,0.063222127,20,351,2485,1007,14246728,8661171,157,1007,1007,0,10379391,10,0
final_results/31,93025788,1764,747,20985,17698343,10063359,9067,547,120,1552,736,0.057389834,21,324,1433,1070,14710998,7996558,161,1006,1006,0,10292620,9,0
final_results/4,93762348,1764,747,21819,17624093,10004308,8754,753,124,1552,736,0.056380731,20,339,2003,1147,14741014,8536907,160,1007,1007,0,10471761,10,0
final_results/5,96177965,1764,747,20772,17170367,8829412,7841,900,138,1552,736,0.061900721,22,365,2682,1117,14676696,8777158,152,1006,1006,0,10401527,9,0
final_results/6,93194678,1764,747,19176,17939167,10240207,8668,557,113,1552,736,0.057178298,21,234,1306,1195,16274887,8425070,182,1005,1005,0,10035150,8,0
final_results/7,92786589,1764,747,18452,17944534,10252847,8540,602,94,1552,736,0.060331227,20,178,710,1318,16251974,8696184,190,1007,1007,0,10078168,10,0
final_results/8,83920016,1764,747,21230,15899663,7845629,7001,1048,163,1552,736,0.052010623,22,490,3424,956,12817782,8805213,134,1006,1006,0,9402861,9,0
final_results/9,92413540,1764,747,23609,17322445,8817253,7930,981,168,1552,736,0.045267284,19,529,2772,941,13321148,8340017,143,1007,1007,0,10461638,10,0
