Name,Cycles,D1misses,I1misses,L1-dcache-load-misses,L1-dcache-loads,L1-dcache-stores,L1-icache-load-misses,LLC-loads,LLC_stores,LLdmisses,LLimisses,Time,binsize,cache-misses,cache-references,dTLB-load-misses,dTLB-loads,dTLB-stores,dTLB_store_misses,latency,measured,mem-loads,mem-stores,size,sseavx
final_results/0,87226193,1764,748,19213,16074496,8547345,7559,863,142,1552,737,0.063044666,59,498,2821,1018,14020132,8849326,153,20,20,0,9237143,21,0
final_results/1,82835282,1764,748,24474,17384399,9142027,7532,840,156,1552,737,0.052693608,33,385,3305,954,12850293,8071041,134,10,10,0,10695054,8,0
final_results/10,77361916,1764,748,23089,17600698,9318872,8213,602,124,1552,737,0.048767910,10,264,2626,865,13525357,7163075,123,2,2,0,10753342,3,0
final_results/100,81615405,1764,748,22314,17675343,9451427,8638,506,118,1552,737,0.043770629,14,243,1975,1114,13974164,8125208,120,3,3,0,10717174,4,0
final_results/101,76110241,1764,748,24682,17091704,7508732,7111,920,165,1552,737,0.050758561,8,351,3094,664,11803952,7619417,121,2,2,0,10693192,3,0
final_results/102,81150692,1764,748,22742,17530020,9347281,8964,578,121,1552,737,0.048865985,7,347,2249,931,13838883,7552276,118,2,2,0,10762148,3,0
final_results/103,93758382,1764,748,18225,17874447,10317826,8179,1400,122,1552,737,0.053946098,28,196,706,1358,16537732,9259752,179,8,8,0,9553910,9,0
final_results/104,80664083,1764,748,23902,17392989,9320690,7904,681,157,1552,737,0.049164389,21,346,2584,952,12812325,7944409,125,6,6,0,10745863,7,0
final_results/105,81003614,1764,748,22853,17245136,8757532,8028,714,123,1552,737,0.047659565,24,303,2467,849,13793103,7764481,122,7,7,0,10639306,8,0
final_results/106,77932597,1764,748,21222,17829991,10051012,9154,382,101,1552,737,0.043391657,10,170,1749,958,14698932,7006572,118,2,2,0,10776143,3,0
final_results/107,77004520,1764,748,23119,17541321,9844277,9027,623,160,1552,737,0.045847938,10,325,2240,684,12794040,6385707,127,2,2,0,10796936,3,0
final_results/108,80880538,1764,748,25137,17404873,9197675,8052,835,147,1552,737,0.047751870,13,406,3128,934,13526492,8101424,125,3,3,0,10692730,4,0
final_results/109,76503350,1764,748,23972,17363036,9160984,7877,805,139,1552,737,0.041998885,10,371,2707,666,13236345,6841869,123,2,2,0,10765095,3,0
final_results/11,55824880,1764,748,14981,12636193,6695669,6163,1298,185,1552,737,0.039739348,12,540,4870,756,14117818,9292389,125,3,3,0,7163522,4,0
final_results/110,93118626,1764,748,22959,17459590,8789490,8154,769,157,1552,737,0.051895395,,338,2460,907,13564684,7980665,150,,,0,10465137,,
final_results/111,92445589,1764,748,20128,17844752,10162825,9304,584,116,1552,737,0.061831598,30,286,1397,1132,16114294,8194549,163,9,9,0,10100557,10,0
final_results/112,89784352,1764,748,20643,17376204,8936497,8288,769,136,1552,737,0.058004812,30,253,2096,998,14466720,8192326,157,9,9,0,10591145,10,0
final_results/113,81093454,1764,748,22503,17515632,9447520,8309,586,113,1552,737,0.039385210,13,361,2462,762,14333636,6836025,125,3,3,0,10754517,4,0
final_results/114,80997130,1764,748,23115,17551462,9294090,8544,680,124,1552,737,0.051265095,16,449,2147,954,14193736,7765153,133,4,4,0,10719997,5,0
final_results/115,81930808,1764,748,23504,17797293,9945786,8342,531,107,1552,737,0.038504159,16,268,1601,1131,14716956,8111889,120,3,3,0,10667761,4,0
final_results/116,79250274,1764,748,21056,16507309,7084450,6447,1180,196,1552,737,0.038232149,12,505,4352,676,11359264,8455927,129,3,3,0,10588901,4,0
final_results/117,77039444,1764,748,23574,17469363,9326047,8059,641,142,1552,737,0.048814653,10,286,2157,743,13090250,6961189,120,2,2,0,10781229,3,0
final_results/118,92720795,1764,748,21836,17107370,8889668,8143,756,134,1552,737,0.057436775,28,271,2558,934,13133087,8189824,141,10,10,0,10582848,9,0
final_results/119,90017827,1764,748,19729,17784842,10117844,8796,576,97,1552,737,0.061251436,27,206,1341,1215,15877129,8375942,157,7,7,0,10537513,8,0
final_results/12,94926971,1764,748,20747,17632744,10001949,8137,1094,119,1552,737,0.056547756,53,256,1464,970,14763518,7650271,153,12,12,0,10105902,13,0
final_results/120,84977012,1764,748,23643,17496180,9809790,7906,730,127,1552,737,0.040342650,22,278,2378,914,13323945,7576120,128,6,6,0,10731491,7,0
final_results/121,85113926,1764,748,24966,17451544,9113852,7838,874,155,1552,737,0.044781851,29,346,2805,948,12667595,7875603,129,7,7,0,10695100,8,0
final_results/122,82307676,1764,748,18873,16587981,6714644,5540,1279,177,1552,737,0.044684085,21,464,3864,770,12800977,9072107,126,6,6,0,10519727,7,0
final_results/123,80709753,1764,748,23919,17397828,9247142,8941,688,151,1552,737,0.046996758,15,382,2715,842,12480943,7536115,123,4,4,0,10730195,5,0
final_results/124,76100408,1764,748,20900,17027245,8224188,7112,908,136,1552,737,0.046933295,7,324,2974,661,12552364,7419593,124,2,2,0,10692852,3,0
final_results/125,87580870,1764,748,22048,17630604,9886946,8686,666,135,1552,737,0.047332699,29,392,2310,1011,14449354,7658864,153,7,7,0,10660549,8,0
final_results/126,81651585,1764,748,21816,17697595,9989321,8972,418,123,1552,737,0.046952398,21,224,1713,1118,14184344,7727355,119,6,6,0,10803261,7,0
final_results/127,66206750,1764,748,18591,14775334,8055563,6740,1051,147,1552,737,0.051286038,13,343,3389,965,14299880,8672107,136,4,4,<not counted>,<not counted>,5,0
final_results/128,77327557,1764,748,21443,17659206,9950281,8917,358,108,1552,737,0.049290385,7,192,1340,751,13823813,6261704,115,2,2,0,10856676,3,0
final_results/129,69345657,1764,748,19178,15626303,8424003,6912,852,160,1552,737,0.047709581,6,315,3146,1058,13171257,9024724,120,2,2,0,9653710,3,0
final_results/13,72845430,1764,748,21513,15601046,7188468,6439,1061,168,1552,737,0.046499563,12,416,3560,776,13039319,8474647,130,3,3,0,<not counted>,4,0
final_results/130,77018892,1764,748,24000,17492202,9142640,7678,689,126,1552,737,0.036257198,7,310,2486,754,13109504,7017215,120,2,2,0,10756352,3,0
final_results/131,81800847,1764,748,20540,17793121,10071969,8778,426,97,1552,737,0.045388310,10,294,1535,1027,14716111,7174241,125,3,3,0,10808043,4,0
final_results/132,77877806,1764,748,20745,15991833,8412811,7156,893,156,1552,737,0.042173198,37,350,3211,963,13872417,8417707,134,13,13,0,9603974,10,0
final_results/133,68635560,1764,748,20875,15692392,7869645,6816,1031,150,1552,737,0.034200606,7,333,3502,798,13455462,8281809,127,2,2,0,9643421,3,0
final_results/134,69657774,1764,748,24129,16008264,8704679,6720,1001,156,1552,737,0.045351794,8,357,3856,676,12143232,7680735,127,2,2,0,9609699,3,0
final_results/135,70089154,1764,748,22476,16141839,8758154,7846,816,136,1552,737,0.048351385,8,297,2628,675,13693518,6991540,127,2,2,0,9704739,3,0
final_results/136,84122812,1764,748,20804,16174876,8450187,7634,920,139,1552,737,0.063019804,29,310,2411,1008,14349665,8583368,151,9,9,0,9332025,10,0
final_results/137,80950272,1764,748,22096,17417680,9466948,7467,755,133,1552,737,0.037109453,27,305,2590,1027,14112915,8471982,132,5,5,0,10676354,6,0
final_results/138,76871748,1764,748,21890,17354234,9400477,8044,635,124,1552,737,0.049173083,9,267,2261,774,13299206,7032643,122,2,2,0,10736583,3,0
final_results/139,76955975,1764,748,23988,17503318,9781354,8800,541,130,1552,737,0.054230876,12,296,2444,671,13444320,6482075,123,2,2,0,10773849,3,0
final_results/14,75802008,1764,748,24616,17151420,8707615,7453,935,180,1552,737,0.046657549,9,368,3228,684,11738598,7493752,122,2,2,0,10571244,3,0
final_results/140,76880453,1764,748,24206,17452555,9254339,8372,636,134,1552,737,0.047604012,8,318,2979,769,13225390,7187300,122,2,2,0,10732238,3,0
final_results/141,99393234,1764,748,20912,17322110,8926109,7749,1222,145,1552,737,0.055733887,,306,2192,936,14902405,8533081,151,,,0,10114677,,
final_results/142,76837917,1764,748,26125,17367296,9113080,8129,805,156,1552,737,0.048300202,10,340,3395,665,13128194,6925615,123,2,2,0,10733732,3,0
final_results/143,96803159,1764,748,21032,17685697,10106010,9236,739,129,1552,737,0.054653741,35,258,1467,990,15194531,7411902,151,10,10,0,10386047,11,0
final_results/144,91026303,1764,748,23964,17454612,8773301,8279,808,132,1552,737,0.055601262,21,320,2526,844,14259256,7536199,131,6,6,0,10595161,7,0
final_results/145,92750193,1764,748,19208,17911458,10220462,8732,478,92,1552,737,0.060298048,30,241,1221,1207,16278262,8501202,166,8,8,0,10077468,9,0
final_results/146,79890500,1764,748,26060,17055317,7895608,6241,1061,158,1552,737,0.045932520,11,370,3728,763,11982502,8239158,124,3,3,0,10661021,4,0
final_results/147,80862641,1764,748,22772,17439281,8799626,8177,706,134,1552,737,0.047946855,18,301,2490,1058,13504620,8236367,133,4,4,0,10735833,5,0
final_results/148,76144026,1764,748,24956,17184887,8052504,6797,1021,159,1552,737,0.041635756,10,393,3026,673,12655857,7583224,122,2,2,0,10664918,3,0
final_results/149,81812928,1764,748,20974,17756843,10041956,9470,491,104,1552,737,0.048399231,15,305,1762,1086,15449528,7495535,119,4,4,0,10820794,5,0
final_results/15,94070966,1764,748,20207,17791484,10129978,8926,561,99,1552,737,0.052782804,21,227,989,1152,16208677,8200686,169,6,6,0,10365364,7,0
final_results/150,77698185,1764,748,22952,17731056,9885011,8855,442,116,1552,737,0.050682967,11,317,1789,668,13289149,6062472,121,2,2,0,10708701,3,0
final_results/151,81293770,1764,748,23774,16666045,6926589,5420,1371,202,1552,737,0.043639389,26,367,3770,672,12152383,8417850,123,6,6,0,10550581,7,0
final_results/152,76004550,1764,748,24586,16734282,8676860,6812,1015,172,1552,737,0.046827304,8,367,3783,777,11992850,8141114,125,2,2,0,10671075,3,0
final_results/153,76128530,1764,748,18749,16837781,8309120,7121,840,138,1552,737,0.045650129,10,313,3094,863,13544229,8177007,121,2,2,0,10643722,3,0
final_results/154,68844306,1764,748,21345,15833535,8235752,6736,953,148,1552,737,0.046792688,8,388,3118,683,13551923,7465246,121,2,2,0,9662461,3,0
final_results/155,40741388,1764,748,15556,10493351,6910864,5700,1401,178,1552,737,0.044516136,12,640,5221,744,14850228,9059006,131,2,2,0,<not counted>,3,0
final_results/16,95263849,1764,748,19898,17698727,10155581,8521,789,122,1552,737,0.060572251,42,230,1000,1018,15391738,7859659,165,11,11,0,10023837,12,0
final_results/17,89983492,1764,748,20884,17763059,10101759,8692,476,109,1552,737,0.057578106,18,244,1838,1151,14734739,8302636,165,6,6,0,10553223,7,0
final_results/18,81010636,1764,748,21674,17264444,9420369,8352,683,132,1552,737,0.054780105,15,309,2650,1028,14191580,8065702,122,4,4,0,10725626,5,0
final_results/19,56888835,1764,748,19040,12960410,6966086,6145,1205,173,1552,737,0.049417349,11,458,3972,812,13562768,9005444,129,3,3,0,7422128,4,0
final_results/2,77108041,1764,748,21726,17254238,8767666,7519,702,141,1552,737,0.038319054,10,365,2425,975,13535546,7981399,126,2,2,0,10720331,3,0
final_results/20,81641767,1764,748,22890,17667402,9947093,9018,658,131,1552,737,0.050915624,13,394,2420,1142,14353983,7864845,120,3,3,0,10763562,4,0
final_results/21,54866606,1764,748,19236,13037809,6527631,5589,1410,194,1552,737,0.050568108,10,852,5011,712,12997298,8957774,130,2,2,0,7448437,3,0
final_results/22,77546441,1764,748,21846,17710754,9925935,8723,520,111,1552,737,0.047009963,10,328,1043,656,14456067,5808666,120,2,2,0,10822880,3,0
final_results/23,83531300,1764,748,23723,17566057,9246202,8419,699,149,1552,737,0.054370806,27,388,2369,925,13748902,7573083,146,10,10,0,10677355,8,0
final_results/24,76223657,1764,748,21477,16761076,7543022,7032,964,144,1552,737,0.046415147,7,411,3170,777,12872166,8127387,124,2,2,0,10651331,3,0
final_results/25,77900581,1764,748,22778,17784355,9975966,8620,446,100,1552,737,0.035835921,7,252,1678,853,14757711,6702264,124,2,2,0,10775926,3,0
final_results/26,92856554,1764,748,21832,17662267,10043581,8242,650,129,1552,737,0.056167232,41,239,1577,970,14801916,7756060,158,12,12,0,10307302,13,0
final_results/27,73880902,1764,748,23089,16144230,8426128,7320,865,131,1552,737,0.048344100,13,309,2916,873,13266687,8295120,128,3,3,0,<not counted>,4,0
final_results/28,83978072,1764,748,21018,17786701,10047802,8547,616,115,1552,737,0.055543889,19,276,1278,1308,15287913,8355338,143,5,5,0,10773274,6,0
final_results/29,85274774,1764,748,23652,17558402,9323302,7684,767,122,1552,737,0.054715829,15,292,2408,1037,14175044,8135751,150,4,4,0,10546062,5,0
final_results/3,77919418,1764,748,22083,17809182,9982683,8841,507,104,1552,737,0.046613878,10,255,1324,903,14760923,6599143,116,2,2,0,10755474,3,0
final_results/30,75477881,1764,748,19658,16723320,8315424,7114,879,171,1552,737,0.052695922,9,461,3515,779,12951293,8100451,127,2,2,0,10506198,3,0
final_results/31,89357186,1764,748,22812,17550023,9918170,8424,596,142,1552,737,0.056796470,37,362,2124,1007,13907969,7785268,130,8,8,0,10689277,9,0
final_results/32,80614230,1764,748,22266,17397483,8766005,8208,677,128,1552,737,0.047383724,17,297,2754,747,13817289,7039440,125,5,5,0,10759611,6,0
final_results/33,76854540,1764,748,23717,17472851,9321757,8007,684,135,1552,737,0.045314503,6,337,2553,875,13277704,7440764,124,1,1,0,10771769,2,0
final_results/34,68106992,1764,748,21670,15307696,7067008,5399,1360,169,1552,737,0.037134973,8,364,4269,691,12609961,8669851,129,2,2,0,9548753,3,0
final_results/35,74006635,1764,748,22756,16151912,8932290,8103,858,149,1552,737,0.052735469,27,362,2850,889,13897972,7776592,126,6,6,0,9639238,7,0
final_results/36,89818054,1764,748,20140,17720352,10074496,8585,562,112,1552,737,0.054771273,41,293,1710,1145,15252519,8241793,170,10,10,0,10550028,11,0
final_results/37,79542067,1764,748,18061,16975692,8015353,7210,930,148,1552,737,0.045844745,17,359,3378,954,14022453,8665434,125,5,5,0,10532823,6,0
final_results/38,80549599,1764,748,25730,17309144,8496184,6723,1018,156,1552,737,0.051468674,15,401,3179,830,12373844,8070602,124,3,3,0,10671492,4,0
final_results/39,61469393,1764,748,19175,14103210,7333538,5952,1220,159,1552,737,0.050744498,12,478,3899,810,13429497,8663567,127,2,2,0,8545345,3,0
final_results/4,81388929,1764,748,23055,17618105,9946775,9046,561,116,1552,737,0.047449124,13,259,1956,1053,14466266,7670880,124,3,3,0,10750311,4,0
final_results/40,48637959,1764,748,15972,12025978,7062900,5761,1434,204,1552,737,0.047446004,9,900,5771,738,14209434,9203202,132,2,2,<not counted>,<not counted>,3,0
final_results/41,76876127,1764,748,22828,17453431,9375998,8071,602,115,1552,737,0.047957160,8,319,2134,777,13823872,6905332,125,2,2,0,10781506,3,0
final_results/42,67425699,1764,748,21802,15526186,6772801,6434,1224,155,1552,737,0.045205812,8,499,3851,673,13571095,8550204,122,2,2,0,<not counted>,3,0
final_results/43,81460932,1764,748,21916,17632386,9940782,9199,453,124,1552,737,0.048666771,15,382,1925,1041,14122624,7522018,121,3,3,0,10793981,4,0
final_results/44,75908469,1764,748,21781,16946742,8298745,7463,936,147,1552,737,0.053971781,10,294,3135,684,13282629,7396405,126,2,2,0,10678027,3,0
final_results/45,76397537,1764,748,21904,16849822,8710808,7957,854,167,1552,737,0.044635763,10,355,2874,680,12302103,7323751,122,2,2,0,10681993,3,0
final_results/46,76827646,1764,748,23452,17459053,9284243,8580,663,140,1552,737,0.049597847,8,360,2557,745,13798707,6982264,120,2,2,0,10797639,3,0
final_results/47,80885870,1764,748,22925,17158103,8543016,7376,851,140,1552,737,0.042049776,9,382,2903,760,13430503,7356708,124,2,2,0,10717333,3,0
final_results/48,76465816,1764,748,24508,17215517,7626906,6725,1079,161,1552,737,0.046977204,8,383,3995,666,13173067,8097722,127,2,2,0,10500083,3,0
final_results/49,77356438,1764,748,21341,17668848,9953196,9300,418,115,1552,737,0.050788799,8,252,1720,766,14820443,6445513,121,2,2,0,10797438,3,0
final_results/5,77255900,1764,748,22466,17613182,9891697,8374,682,112,1552,737,0.042007651,11,243,1799,768,14144193,6566757,121,2,2,0,10795950,3,0
final_results/50,83616848,1764,748,22347,17662857,9899608,8094,691,126,1552,737,0.055427292,24,317,1933,1110,14741658,8092565,133,7,7,0,10723525,8,0
final_results/51,77543838,1764,748,22584,17669008,9314406,8285,596,118,1552,737,0.041059979,8,272,1746,763,14324282,6761941,125,2,2,0,10730666,3,0
final_results/52,81294270,1764,748,22607,17622519,9844682,8504,539,119,1552,737,0.051489275,7,328,2188,952,13501877,7308671,124,2,2,0,10762307,3,0
final_results/53,75715230,1764,748,21469,16954158,8297422,7018,999,153,1552,737,0.048694332,7,332,3773,764,13647994,8107244,127,2,2,0,10583233,3,0
final_results/54,71928050,1764,748,18505,14404982,7953355,6953,1026,160,1552,737,0.050496069,33,368,3072,932,14431539,8828434,157,9,9,0,8386256,10,0
final_results/55,70261950,1764,748,23499,16164276,8314218,8124,793,160,1552,737,0.043896636,8,366,3481,656,12446935,7403154,123,2,2,0,9600785,3,0
final_results/56,76938478,1764,748,25701,17465262,9696990,8282,741,144,1552,737,0.043794349,8,328,2965,676,12115176,6647953,123,2,2,0,10756693,3,0
final_results/57,77408820,1764,748,23170,17617595,9371295,8437,674,142,1552,737,0.049547756,8,267,2128,858,13983505,7343806,122,2,2,0,10718201,3,0
final_results/58,49738347,1764,748,18001,12351664,7341503,6572,1133,172,1552,737,0.042239002,10,662,4650,801,14016529,8717602,128,2,2,0,6413485,3,0
final_results/59,76747785,1764,748,22207,17307166,9376549,8831,555,134,1552,737,0.048931502,8,343,2839,760,12494123,7205095,124,2,2,0,10693554,3,0
final_results/6,68667188,1764,748,19148,15684400,7426194,6813,1005,156,1552,737,0.048136865,5,412,4158,684,13196441,8170640,128,1,1,0,9493374,2,0
final_results/60,65056913,1764,748,19726,14532997,7932442,7085,934,141,1552,737,0.049726413,13,396,3918,887,14597554,8658420,125,3,3,0,8414750,4,0
final_results/61,68138902,1764,748,18907,15373659,7486532,6006,1294,196,1552,737,0.044870374,7,496,4288,777,13747378,8967875,125,2,2,0,9500698,3,0
final_results/62,79580383,1764,748,21660,16865310,8022510,6463,1157,180,1552,737,0.053968084,14,328,3477,763,13094847,8197572,128,3,3,0,10629162,4,0
final_results/63,80530184,1764,748,20613,16889671,8242735,7397,925,138,1552,737,0.043768446,22,342,3160,841,13367275,8135052,137,5,5,0,10717013,6,0
final_results/64,66147833,1764,748,17788,14304884,6949504,6652,1122,156,1552,737,0.049991016,7,428,3609,695,13575064,8473430,131,2,2,0,8423654,3,0
final_results/65,81352694,1764,748,23529,17571441,9314346,8187,651,118,1552,737,0.052300880,20,291,2409,1132,13858684,8260113,122,4,4,0,10779143,5,0
final_results/66,77416186,1764,748,22613,17648018,9895168,8622,528,111,1552,737,0.044072854,9,256,1842,760,13902414,6339163,123,2,2,0,10831642,3,0
final_results/67,77885016,1764,748,21515,17808072,10038927,8821,432,116,1552,737,0.050516335,8,235,1578,961,14038452,7037152,122,2,2,0,10779232,3,0
final_results/68,79841975,1764,748,21604,17079560,8176299,7199,873,142,1552,737,0.051846744,13,342,2924,832,13349659,8161758,126,3,3,0,10707454,4,0
final_results/69,77551348,1764,748,21680,17710459,9972063,8873,475,111,1552,737,0.031098348,8,246,1902,763,13918177,6369262,123,2,2,0,10794717,3,0
final_results/7,81999717,1764,748,21778,17782485,10056389,9188,417,111,1552,737,0.051424779,30,309,1841,1058,14880596,7302309,125,6,6,0,10738853,7,0
final_results/70,76816617,1764,748,22581,17174499,8699941,7066,868,139,1552,737,0.048369068,9,351,2548,680,13280424,6925553,128,2,2,0,10721242,3,0
final_results/71,81917047,1764,748,20887,17817949,10079949,9217,393,108,1552,737,0.047795658,10,219,1347,1110,15715146,7590782,121,3,3,0,10788131,4,0
final_results/72,81300334,1764,748,24132,17612597,9892251,8331,602,127,1552,737,0.049201863,11,275,2374,933,13700585,7444582,125,3,3,0,10723804,4,0
final_results/73,80865507,1764,748,24816,17481375,9764426,8210,713,114,1552,737,0.046592707,16,298,2793,942,13141954,7777469,132,4,4,0,10714477,5,0
final_results/74,81825508,1764,748,24974,16848712,7463020,6038,1271,171,1552,737,0.054276882,24,409,3705,756,12643556,8592932,136,6,6,0,10568040,7,0
final_results/75,89449326,1764,748,23062,17608014,9312646,8147,646,128,1552,737,0.051717991,41,318,2119,1021,14122478,8009784,147,11,11,0,10466148,12,0
final_results/76,80770591,1764,748,23645,17376771,8780459,7754,753,128,1552,737,0.053968801,17,315,2506,840,13598196,7779864,134,4,4,0,10710598,5,0
final_results/77,81364014,1764,748,22535,17616957,9900338,9053,546,111,1552,737,0.039946032,15,245,1986,944,14870891,7252592,123,5,5,0,10771949,6,0
final_results/78,82641799,1764,748,24742,17324706,8694352,7978,816,156,1552,737,0.051262939,25,480,3168,954,12982775,8307619,136,6,6,0,10664073,7,0
final_results/79,76771190,1764,748,24081,17376105,8665589,7791,766,147,1552,737,0.048416840,8,339,2614,860,13457714,7745676,122,2,2,0,10759797,3,0
final_results/8,75553300,1764,748,18521,16034940,8546858,7396,762,139,1552,737,0.045823498,19,298,2538,1038,14260628,8459170,132,6,6,0,9634515,7,0
final_results/80,82244502,1764,748,19564,17876301,10137575,8743,528,114,1552,737,0.050455204,11,215,994,1550,15643943,8702061,121,3,3,0,10838200,4,0
final_results/81,81665899,1764,748,22350,17735420,9947602,8892,573,133,1552,737,0.048589890,15,352,2320,1159,14505847,7945841,123,3,3,0,10730285,4,0
final_results/82,54648624,1764,748,16555,11734515,7111662,6000,1201,175,1552,737,0.054445653,41,389,4202,787,13634286,8991815,130,11,11,0,6272575,12,0
final_results/83,50513737,1764,748,17973,11932918,7187028,6704,1227,173,1552,737,0.044828923,19,464,4458,720,14285818,8579412,128,5,5,<not counted>,<not counted>,6,0
final_results/84,83357271,1764,748,21828,17588149,9477310,8696,621,132,1552,737,0.050512381,29,289,2128,1090,14752252,8187803,142,6,6,0,10713902,7,0
final_results/85,81285144,1764,748,23609,17566248,9761999,8136,746,158,1552,737,0.041292784,24,375,2280,1044,13170169,7778204,123,5,5,0,10780268,6,0
final_results/86,81043173,1764,748,23446,17497176,9320503,8575,759,141,1552,737,0.054339967,11,419,2574,1053,14058551,8099745,124,3,3,0,10737147,4,0
final_results/87,81751989,1764,748,20645,17755870,9959645,8022,496,105,1552,737,0.046243331,14,263,1365,1189,14320464,8074807,131,4,4,0,10830239,5,0
final_results/88,89774539,1764,748,20603,17720852,10059620,8947,518,108,1552,737,0.056061300,22,209,1939,1163,15260977,8298481,155,6,6,0,10501781,7,0
final_results/89,76706638,1764,748,24314,17383092,9248994,7674,703,134,1552,737,0.046381320,10,385,2955,961,13447710,8020623,122,2,2,0,10774963,3,0
final_results/9,84821463,1764,748,23989,17386847,8740084,7600,862,156,1552,737,0.047790672,38,344,2875,862,12444382,7908660,133,9,9,0,10676127,10,0
final_results/90,80390225,1764,748,25174,17276402,8597268,7406,921,157,1552,737,0.044002882,15,347,2439,755,13101362,7571835,125,4,4,0,10713782,5,0
final_results/91,69149903,1764,748,21158,15884816,7348086,7177,975,158,1552,737,0.048380323,10,395,3523,773,13547028,8365177,129,2,2,0,9324479,3,0
final_results/92,81209314,1764,748,23262,17561696,9855625,8020,615,133,1552,737,0.047621185,12,389,2546,1040,13876911,7851317,118,3,3,0,10784259,4,0
final_results/93,89729216,1764,748,22289,17766497,9978294,7897,712,125,1552,737,0.056881163,41,268,1480,1093,14891573,8094215,158,11,11,0,10429303,12,0
final_results/94,80562560,1764,748,26089,17297798,8490548,7758,950,162,1552,737,0.051486886,17,441,3201,778,12803580,7634474,131,4,4,0,10672059,5,0
final_results/95,61879941,1764,748,20854,14200780,7530269,6716,1093,177,1552,737,0.039289407,9,541,4662,696,13170842,8625755,132,2,2,<not counted>,<not counted>,3,0
final_results/96,77447036,1764,748,18754,17282351,8001835,7448,862,162,1552,737,0.052257431,9,381,2829,868,14056990,8340537,126,2,2,0,10277852,3,0
final_results/97,81132680,1764,748,23532,17558972,9843209,8705,553,139,1552,737,0.046139029,18,313,2144,865,12900784,7034467,122,3,3,0,10727804,4,0
final_results/98,96713842,1764,748,19401,17767646,10150046,8998,812,118,1552,737,0.061062338,28,194,1266,1222,16171038,8392757,151,8,8,0,10259043,9,0
final_results/99,81562106,1764,748,22397,17678249,9970327,8618,514,121,1552,737,0.055042038,18,301,1843,1012,14485758,7641106,133,5,5,0,10776049,6,0
