Name,Cycles,D1misses,I1misses,L1-dcache-load-misses,L1-dcache-loads,L1-dcache-stores,L1-icache-load-misses,LLC-loads,LLC_stores,LLdmisses,LLimisses,Time,binsize,cache-misses,cache-references,dTLB-load-misses,dTLB-loads,dTLB-stores,dTLB_store_misses,latency,measured,mem-loads,mem-stores,size,sseavx
final_results/0,1399751089,2515068,991,3326269,274516419,194366330,45522,61690,108204,2507956,978,0.484509778,80,124018,191654,82690,268603773,190883792,152518,21,21,0,194518878,22,0
final_results/1,1401250429,2515068,991,3297845,270632997,191758142,43589,59855,101273,2507956,978,0.487120582,55,126765,180638,84592,263890666,187415064,150195,15,15,0,192128578,12,0
final_results/10,1395741473,2515068,991,3237611,267351267,190038751,43761,79996,104562,2507956,978,0.447700959,39,128005,201654,82711,260955595,188338555,154369,9,9,0,192716096,8,0
final_results/100,2432653,11829,895,34589,538759,244652,8424,<not counted>,<not counted>,7492,882,0.204832532,33,<not counted>,<not counted>,1613,538759,244652,256,8,8,<not counted>,<not counted>,8,0
final_results/101,2392310,11829,895,34379,536867,243504,8239,<not counted>,<not counted>,7492,882,0.190173403,33,<not counted>,<not counted>,1553,537342,243504,256,8,8,<not counted>,<not counted>,8,0
final_results/102,2130458,11829,895,34821,537853,245993,8464,<not counted>,<not counted>,7492,882,0.201810994,33,<not counted>,<not counted>,1597,540914,245993,253,8,8,<not counted>,<not counted>,8,0
final_results/103,1725938,11829,895,34555,538672,244867,8555,<not counted>,<not counted>,7492,882,0.192616608,32,<not counted>,<not counted>,1599,538672,244867,251,8,8,<not counted>,<not counted>,8,0
final_results/104,2027865,11829,895,34543,537964,243881,8267,<not counted>,<not counted>,7492,882,0.184997320,64,<not counted>,<not counted>,1602,537964,243881,252,16,16,<not counted>,<not counted>,14,0
final_results/105,1744381,11829,895,34602,539738,244900,8495,<not counted>,<not counted>,7492,882,0.191169332,53,<not counted>,<not counted>,1619,539738,244900,263,11,11,<not counted>,<not counted>,11,0
final_results/106,1661355,11829,895,34802,538781,245553,8949,<not counted>,<not counted>,7492,882,0.196121070,34,<not counted>,<not counted>,1606,540377,245553,255,8,8,<not counted>,<not counted>,8,0
final_results/107,1886289,11829,895,34754,538871,245000,9024,<not counted>,<not counted>,7492,882,0.198501181,33,<not counted>,<not counted>,1663,539337,245000,259,8,8,<not counted>,<not counted>,8,0
final_results/108,2291810,11829,895,34652,539166,244891,8782,<not counted>,<not counted>,7492,882,0.177207648,43,<not counted>,<not counted>,1580,539166,244891,260,10,10,<not counted>,<not counted>,10,0
final_results/109,1946875,11829,895,34494,533891,244484,8218,<not counted>,<not counted>,7492,882,0.195986728,36,<not counted>,<not counted>,1582,538307,244484,254,9,9,<not counted>,<not counted>,9,0
final_results/11,2332592,11829,895,34371,538345,244288,8351,<not counted>,<not counted>,7492,882,0.190827725,41,<not counted>,<not counted>,1573,538345,244288,254,9,9,<not counted>,<not counted>,9,0
final_results/110,2394854,11829,895,34555,537587,243640,8369,<not counted>,<not counted>,7492,882,0.195754467,32,<not counted>,<not counted>,1599,537587,243640,260,8,8,<not counted>,<not counted>,8,0
final_results/111,2070781,11829,895,34609,539870,245421,8396,<not counted>,<not counted>,7492,882,0.192757267,38,<not counted>,<not counted>,1586,539870,245421,255,9,9,<not counted>,<not counted>,9,0
final_results/112,2452486,11829,895,34866,537965,245612,8743,<not counted>,<not counted>,7492,882,0.205949474,33,<not counted>,<not counted>,1623,540037,245612,266,8,8,<not counted>,<not counted>,8,0
final_results/113,1389479837,11829,895,3165722,267040467,189423105,43114,94346,107069,7492,882,0.457199835,53,134947,229341,82945,262821144,188192744,153495,12,12,0,192651024,11,0
final_results/114,1393812791,2515068,991,3172380,266510241,188826742,41810,94054,110037,2507956,978,0.476726187,38,136909,222889,83160,261580733,188854794,153383,10,10,0,192688554,9,0
final_results/115,2048524,11829,895,34567,535342,243839,8384,<not counted>,<not counted>,7492,882,0.206052475,40,<not counted>,<not counted>,1602,538104,243839,260,10,10,<not counted>,<not counted>,10,0
final_results/116,1396588163,2515068,991,3149141,268349840,189722508,43966,94722,106062,2507956,978,0.485763458,55,135798,230221,82596,261819058,187880103,153533,14,14,0,192676221,11,0
final_results/117,1390827230,2515068,991,2979586,265106616,185494206,40893,143983,105881,2507956,978,0.475106938,47,149851,270185,83834,260114500,189767973,153738,11,11,0,192271559,10,0
final_results/118,1798396,11829,895,34718,541095,245839,8517,<not counted>,<not counted>,7492,882,0.200104401,40,<not counted>,<not counted>,1614,541095,245839,260,10,10,<not counted>,<not counted>,10,0
final_results/119,2140349,11829,895,34423,536563,243116,8218,<not counted>,<not counted>,7492,882,0.194793383,39,<not counted>,<not counted>,1587,536563,243116,256,10,10,<not counted>,<not counted>,10,0
final_results/12,1397831823,2515068,991,3095347,267713573,187376970,41831,120205,105768,2507956,978,0.471939439,55,143727,254296,83297,262705209,188972333,153736,15,15,0,192141468,12,0
final_results/120,1398280377,2515068,991,3260166,268898292,190579757,44143,81278,104289,2507956,978,0.454236427,55,131448,209048,82804,262964359,187664723,153302,14,14,0,192892503,11,0
final_results/121,1394640076,2515068,991,3191898,268004293,189556548,41926,81856,102954,2507956,978,0.456286953,46,137488,201401,83171,262534688,188413222,152966,11,11,0,193065597,10,0
final_results/122,2554036,11829,895,34699,540609,245409,8840,<not counted>,<not counted>,7492,882,0.182454101,44,<not counted>,<not counted>,1595,540609,245409,264,11,11,<not counted>,<not counted>,11,0
final_results/123,2634878,11829,895,34395,537706,243499,8554,<not counted>,<not counted>,7492,882,0.198818989,36,<not counted>,<not counted>,1608,537706,243499,258,9,9,<not counted>,<not counted>,9,0
final_results/124,2703328,11829,895,34442,538251,244364,8725,<not counted>,<not counted>,7492,882,0.206355032,35,<not counted>,<not counted>,1608,538251,244364,259,9,9,<not counted>,<not counted>,9,0
final_results/125,2727211,11829,895,34384,536830,243478,8490,<not counted>,<not counted>,7492,882,0.199059861,31,<not counted>,<not counted>,1590,536830,243478,258,8,8,<not counted>,<not counted>,8,0
final_results/126,1397447696,2515068,991,3245093,268593457,190131578,43458,72977,105929,2507956,978,0.471303592,54,130099,199685,82736,262364147,187358481,153187,14,14,0,192938257,11,0
final_results/127,1390003724,2515068,991,3168930,267370237,190374779,42912,96745,103681,2507956,978,0.473715836,53,130353,222627,82877,261436128,188077413,153406,12,12,0,192481044,11,0
final_results/128,1329448,11829,895,34555,537883,244303,8674,<not counted>,<not counted>,7492,882,0.190926260,41,<not counted>,<not counted>,1645,537883,244303,254,10,10,<not counted>,<not counted>,10,0
final_results/129,2046213,11829,895,34842,540523,245666,8720,<not counted>,<not counted>,7492,882,0.198046267,41,<not counted>,<not counted>,1611,540523,245666,253,10,10,<not counted>,<not counted>,10,0
final_results/13,1393005240,2515068,991,3138887,266555976,188819062,41716,101975,107806,2507956,978,0.462267922,40,139703,235290,91451,261495100,188472086,142522,10,10,0,192674599,9,0
final_results/130,1403607866,11829,895,3108545,270151287,190004987,42123,98213,106343,7492,882,0.454764097,76,138860,228465,83364,263373835,188902277,153227,17,17,0,193561987,16,0
final_results/131,2148604,11829,895,34614,539147,244511,8670,<not counted>,<not counted>,7492,882,0.192450702,43,<not counted>,<not counted>,1637,539147,244511,258,10,10,<not counted>,<not counted>,10,0
final_results/132,2595217,11829,895,34327,538443,244286,8197,<not counted>,<not counted>,7492,882,0.191296089,38,<not counted>,<not counted>,1562,538443,244286,252,9,9,<not counted>,<not counted>,9,0
final_results/133,2008880,11829,895,34871,539340,245642,8814,<not counted>,<not counted>,7492,882,0.204910675,44,<not counted>,<not counted>,1641,540036,245642,265,10,10,<not counted>,<not counted>,10,0
final_results/134,2841963,11829,895,34379,537454,243756,8599,<not counted>,<not counted>,7492,882,0.189173878,54,<not counted>,<not counted>,1589,537454,243756,256,12,12,<not counted>,<not counted>,12,0
final_results/135,1749467,11829,895,34499,537777,244040,8352,<not counted>,<not counted>,7492,882,0.190887223,41,<not counted>,<not counted>,1587,537777,244040,258,9,9,<not counted>,<not counted>,9,0
final_results/136,2641634,11829,895,34471,533905,244346,8478,1896,<not counted>,7492,882,0.183316640,39,<not counted>,<not counted>,1622,538845,244346,261,9,9,<not counted>,<not counted>,9,0
final_results/137,2204401,11829,895,34561,537558,244472,8354,<not counted>,<not counted>,7492,882,0.206331194,39,<not counted>,<not counted>,1621,538504,244472,262,9,9,<not counted>,<not counted>,9,0
final_results/138,2337830,11829,895,34649,537916,244101,8914,<not counted>,<not counted>,7492,882,0.205101978,61,<not counted>,<not counted>,1604,537916,244101,254,13,13,<not counted>,<not counted>,13,0
final_results/139,2104277,11829,895,34590,538935,244496,8399,<not counted>,<not counted>,7492,882,0.197883591,48,<not counted>,<not counted>,1604,538935,244496,251,11,11,<not counted>,<not counted>,11,0
final_results/14,1387959972,2515068,991,3269703,266562363,190252857,44371,88301,105006,2507956,978,0.480683412,39,134644,216092,83222,260294156,187694796,153083,9,9,0,193255691,8,0
final_results/140,2107912,11829,895,34611,538912,244545,8599,<not counted>,<not counted>,7492,882,0.199242747,42,<not counted>,<not counted>,1627,538912,244545,265,10,10,<not counted>,<not counted>,10,0
final_results/141,1846689,11829,895,34446,533487,243673,8355,<not counted>,<not counted>,7492,882,0.195674425,42,<not counted>,<not counted>,1606,537411,243673,257,10,10,<not counted>,<not counted>,10,0
final_results/142,1397928742,2515068,991,2999109,268181780,188427554,42006,115661,103123,2507956,978,0.482284615,67,140957,238392,83475,261935005,190048633,153688,15,15,0,192845193,14,0
final_results/143,2290933,11829,895,34329,536714,243181,8426,<not counted>,<not counted>,7492,882,0.206396366,41,<not counted>,<not counted>,1578,536714,243181,257,9,9,<not counted>,<not counted>,9,0
final_results/144,1655316,11829,895,34363,537751,243588,8452,<not counted>,<not counted>,7492,882,0.193097105,41,<not counted>,<not counted>,1592,537751,243588,256,10,10,<not counted>,<not counted>,10,0
final_results/145,1938493,11829,895,34632,538498,244331,8496,<not counted>,<not counted>,7492,882,0.198854212,44,<not counted>,<not counted>,1599,538819,244331,261,10,10,<not counted>,<not counted>,10,0
final_results/146,1398424526,2515068,991,3183040,267765116,191162462,43479,70945,102189,2507956,978,0.475572238,58,129815,189923,83205,261382501,188811481,152905,12,12,0,194078586,11,0
final_results/147,1569977,11829,895,34418,538240,243822,8421,<not counted>,<not counted>,7492,882,0.197632816,49,<not counted>,<not counted>,1609,538240,243822,258,10,10,<not counted>,<not counted>,10,0
final_results/148,2466206,11829,895,34572,539179,244779,8609,<not counted>,<not counted>,7492,882,0.197346302,44,<not counted>,<not counted>,1600,539179,244779,252,10,10,<not counted>,<not counted>,10,0
final_results/149,2384009,11829,895,34494,538840,244492,8572,<not counted>,<not counted>,7492,882,0.172013808,40,<not counted>,<not counted>,1632,538840,244492,260,9,9,<not counted>,<not counted>,9,0
final_results/15,1395030488,2515068,991,3158852,267341536,189488052,43444,88491,105872,2507956,978,0.489667611,39,128472,212584,83078,261554300,188676002,154140,10,10,0,192520802,9,0
final_results/150,1887466,11829,895,34524,533459,243888,8240,<not counted>,<not counted>,7492,882,0.192240790,40,<not counted>,<not counted>,1582,538323,243888,254,9,9,<not counted>,<not counted>,9,0
final_results/151,2065534,11829,895,34357,537483,243345,8226,<not counted>,<not counted>,7492,882,0.200312736,40,<not counted>,<not counted>,1611,537483,243345,255,9,9,<not counted>,<not counted>,9,0
final_results/152,1406626013,2515068,991,3176372,271330141,189213831,44738,132974,110225,2507956,978,0.495484560,77,139951,258464,83319,265237444,190671210,153587,18,18,0,193654984,17,0
final_results/153,2586339,11829,895,34442,537764,243653,8453,<not counted>,<not counted>,7492,882,0.195097805,43,<not counted>,<not counted>,1617,537764,243653,256,9,9,<not counted>,<not counted>,9,0
final_results/154,2730860,11829,895,34423,539401,244911,8456,<not counted>,<not counted>,7492,882,0.204812963,56,<not counted>,<not counted>,1610,539401,244911,262,12,12,<not counted>,<not counted>,12,0
final_results/155,2392444,11829,895,34499,538088,244125,8186,<not counted>,<not counted>,7492,882,0.184189845,69,<not counted>,<not counted>,1592,538088,244125,252,14,14,<not counted>,<not counted>,14,0
final_results/156,1394368913,2515068,991,3187343,267501961,188840966,42879,104382,106010,2507956,978,0.489954430,46,137147,235090,83215,262452530,188299876,154230,10,10,0,192530436,9,0
final_results/157,1926807,11829,895,34498,539192,244917,8438,<not counted>,<not counted>,7492,882,0.191471382,38,<not counted>,<not counted>,1599,539192,244917,250,9,9,<not counted>,<not counted>,9,0
final_results/158,2232554,11829,895,34660,537114,245071,8715,<not counted>,<not counted>,7492,882,0.186488294,51,<not counted>,<not counted>,1624,539146,245071,254,11,11,<not counted>,<not counted>,11,0
final_results/159,2512972,11829,895,34575,538421,244645,8504,<not counted>,<not counted>,7492,882,0.167817744,47,<not counted>,<not counted>,1619,538421,244645,252,10,10,<not counted>,<not counted>,10,0
final_results/16,2344577,11829,895,34394,537485,244119,8565,<not counted>,<not counted>,7492,882,0.207362620,38,<not counted>,<not counted>,1615,537485,244119,262,9,9,<not counted>,<not counted>,9,0
final_results/160,2145873,11829,895,34691,539994,245389,8996,<not counted>,<not counted>,7492,882,0.206515000,41,<not counted>,<not counted>,1669,539994,245389,259,9,9,<not counted>,<not counted>,9,0
final_results/161,2532629,11829,895,34197,536927,243631,8513,<not counted>,<not counted>,7492,882,0.189424636,42,<not counted>,<not counted>,1610,536927,243631,254,9,9,<not counted>,<not counted>,9,0
final_results/162,2276530,11829,895,34456,539664,245141,8425,<not counted>,<not counted>,7492,882,0.198280867,47,<not counted>,<not counted>,1638,539664,245141,253,10,10,<not counted>,<not counted>,10,0
final_results/163,1405807966,2515068,991,3232074,269890725,193067768,43956,102126,108156,2507956,978,0.461175450,74,122333,183079,83188,266376986,189320436,152407,18,18,0,190848478,17,0
final_results/164,2621969,11829,895,34618,538814,244581,8424,<not counted>,<not counted>,7492,882,0.200828941,45,<not counted>,<not counted>,1585,538814,244581,260,10,10,<not counted>,<not counted>,10,0
final_results/165,2408913,11829,895,34479,537513,244380,8740,<not counted>,<not counted>,7492,882,0.194040777,40,<not counted>,<not counted>,1617,537513,244380,272,9,9,<not counted>,<not counted>,9,0
final_results/166,1991724,11829,895,34606,538629,244378,8900,<not counted>,<not counted>,7492,882,0.190566797,59,<not counted>,<not counted>,1612,538629,244378,258,13,13,<not counted>,<not counted>,13,0
final_results/167,1396165576,2515068,991,3155045,268073491,190417750,43693,69128,101737,2507956,978,0.483841641,39,124481,187219,82969,261943299,188410075,154014,9,9,0,192519831,8,0
final_results/168,2307638,11829,895,34469,538699,244374,8805,<not counted>,<not counted>,7492,882,0.206048707,39,<not counted>,<not counted>,1600,538699,244374,256,9,9,<not counted>,<not counted>,9,0
final_results/169,2286320,11829,895,34609,538891,244583,8564,<not counted>,<not counted>,7492,882,0.189925528,42,<not counted>,<not counted>,1578,538891,244583,258,9,9,<not counted>,<not counted>,9,0
final_results/17,2207842,11829,895,34766,537325,245360,8442,<not counted>,<not counted>,7492,882,0.188933732,40,<not counted>,<not counted>,1602,540225,245360,260,9,9,<not counted>,<not counted>,9,0
final_results/170,1865784,11829,895,35032,540687,245690,9024,<not counted>,<not counted>,7492,882,0.191811397,47,<not counted>,<not counted>,1637,540940,245690,264,11,11,<not counted>,<not counted>,11,0
final_results/171,2800344,11829,895,34464,538225,244435,8494,<not counted>,<not counted>,7492,882,0.192328931,45,<not counted>,<not counted>,1588,538225,244435,263,10,10,<not counted>,<not counted>,10,0
final_results/172,2553012,11829,895,34408,538945,244578,8401,<not counted>,<not counted>,7492,882,0.206866203,41,<not counted>,<not counted>,1607,538945,244578,258,9,9,<not counted>,<not counted>,9,0
final_results/173,2404861,11829,895,34618,538787,244248,8490,<not counted>,<not counted>,7492,882,0.197850500,43,<not counted>,<not counted>,1607,538787,244248,256,10,10,<not counted>,<not counted>,10,0
final_results/174,1394133302,2515068,991,3249490,267297483,189094550,42633,103548,109650,2507956,978,0.479191087,39,136396,232087,83104,261296987,188525683,153927,9,9,0,193124711,8,0
final_results/18,2291909,11829,895,34551,539018,244440,8528,<not counted>,<not counted>,7492,882,0.204984977,35,<not counted>,<not counted>,1554,539018,244440,249,8,8,<not counted>,<not counted>,8,0
final_results/19,1398318608,2515068,991,3243861,268753251,189411481,42735,83106,108313,2507956,978,0.462710494,55,132212,220273,83002,263671153,188322502,153949,15,15,0,192176333,12,0
final_results/2,1396691099,2515068,991,3126417,268717443,188198043,42362,104274,101458,2507956,978,0.467238336,53,139948,224445,83395,263289079,188861765,153734,12,12,0,192655742,11,0
final_results/20,1398434766,2515068,991,3252995,270220653,191701221,43102,69059,102721,2507956,978,0.458347352,60,129584,187955,83066,262830104,188516750,152803,13,13,0,194013149,12,0
final_results/21,1385899261,2515068,991,3096504,265879500,188968774,41719,106482,103540,2507956,978,0.464282862,37,139812,229153,83382,260651766,188511829,153355,9,9,0,192761210,8,0
final_results/22,2504194,11829,895,34232,537621,243429,8058,<not counted>,<not counted>,7492,882,0.197955680,40,<not counted>,<not counted>,1585,537621,243429,248,9,9,<not counted>,<not counted>,9,0
final_results/23,1395554215,2515068,991,3174209,267588936,190304163,42891,80064,104900,2507956,978,0.481955332,38,130092,204999,82764,261019955,188192153,154361,9,9,0,192716399,8,0
final_results/24,1395024537,2515068,991,2973486,268192857,187315153,41029,132095,103089,2507956,978,0.480741960,48,148541,255574,83547,263479913,190444298,153554,11,11,0,193284007,10,0
final_results/25,2009113,11829,895,34447,538050,244058,8593,<not counted>,<not counted>,7492,882,0.188459316,33,<not counted>,<not counted>,1614,538050,244058,264,8,8,<not counted>,<not counted>,8,0
final_results/26,2282767,11829,895,34687,539073,245083,8655,<not counted>,<not counted>,7492,882,0.204195536,35,<not counted>,<not counted>,1626,539389,245083,258,8,8,<not counted>,<not counted>,8,0
final_results/27,2475903,11829,895,34496,536901,243844,8419,<not counted>,<not counted>,7492,882,0.198879074,35,<not counted>,<not counted>,1601,537772,243844,260,8,8,<not counted>,<not counted>,8,0
final_results/28,2089970,11829,895,34307,537069,243582,8288,<not counted>,<not counted>,7492,882,0.198372346,45,<not counted>,<not counted>,1612,537069,243582,258,10,10,<not counted>,<not counted>,10,0
final_results/29,2219252,11829,895,34496,538558,244668,8620,<not counted>,<not counted>,7492,882,0.184770251,35,<not counted>,<not counted>,1607,538558,244668,255,8,8,<not counted>,<not counted>,8,0
final_results/3,1865190,11829,895,34475,535328,244243,8371,2000,<not counted>,7492,882,0.191398197,39,<not counted>,<not counted>,1593,538079,244243,259,9,9,<not counted>,<not counted>,9,0
final_results/30,2701802,11829,895,34480,537351,243873,8781,<not counted>,<not counted>,7492,882,0.179221137,35,<not counted>,<not counted>,1612,537351,243873,266,8,8,<not counted>,<not counted>,8,0
final_results/31,2349327,11829,895,34576,534169,244373,8604,<not counted>,<not counted>,7492,882,0.189965442,54,<not counted>,<not counted>,1585,538667,244373,260,11,11,<not counted>,<not counted>,11,0
final_results/32,2593625,11829,895,34119,535628,242837,8219,<not counted>,<not counted>,7492,882,0.199079745,47,<not counted>,<not counted>,1573,535628,242837,254,11,11,<not counted>,<not counted>,11,0
final_results/33,2624161,11829,895,34435,537069,243630,8400,<not counted>,<not counted>,7492,882,0.200016925,41,<not counted>,<not counted>,1605,537069,243630,261,9,9,<not counted>,<not counted>,9,0
final_results/34,1384264870,2515068,991,3109827,265258902,187418334,42030,131364,108189,2507956,978,0.471062289,39,143596,262789,83436,261359099,189317340,154317,9,9,0,192088910,8,0
final_results/35,2581973,11829,895,34088,537506,244077,8296,<not counted>,<not counted>,7492,882,0.190465452,41,<not counted>,<not counted>,1550,537506,244077,249,9,9,<not counted>,<not counted>,9,0
final_results/36,1720249,11829,895,34413,537575,244280,8543,<not counted>,<not counted>,7492,882,0.181589200,35,<not counted>,<not counted>,1574,538120,244280,253,8,8,<not counted>,<not counted>,8,0
final_results/37,1396158137,2515068,991,3216782,268667730,190315782,45512,70076,101661,2507956,978,0.474339725,40,128340,198314,82454,262785198,187970712,154177,9,9,0,192642169,8,0
final_results/38,2224119,11829,895,34570,539168,244796,8824,<not counted>,<not counted>,7492,882,0.187265555,40,<not counted>,<not counted>,1606,539168,244796,259,9,9,<not counted>,<not counted>,9,0
final_results/39,1913094,11829,895,34627,537278,245097,8478,<not counted>,<not counted>,7492,882,0.207483843,37,<not counted>,<not counted>,1609,539503,245097,259,8,8,<not counted>,<not counted>,8,0
final_results/4,2621245,11829,895,34487,536856,243341,8974,<not counted>,<not counted>,7492,882,0.170766775,37,<not counted>,<not counted>,1634,536856,243341,270,9,9,<not counted>,<not counted>,9,0
final_results/40,2196382,11829,895,34442,537949,244130,8554,<not counted>,<not counted>,7492,882,0.191555926,37,<not counted>,<not counted>,1616,537949,244130,255,8,8,<not counted>,<not counted>,8,0
final_results/41,2019449,11829,895,34331,535742,243253,8459,<not counted>,<not counted>,7492,882,0.175977542,54,<not counted>,<not counted>,1609,535742,243253,264,12,12,<not counted>,<not counted>,12,0
final_results/42,1898417,11829,895,34400,534763,244208,8413,<not counted>,<not counted>,7492,882,0.199425228,50,<not counted>,<not counted>,1595,538090,244208,259,12,12,<not counted>,<not counted>,12,0
final_results/43,2298662,11829,895,34463,538562,244351,8600,<not counted>,<not counted>,7492,882,0.195769795,36,<not counted>,<not counted>,1588,538562,244351,267,8,8,<not counted>,<not counted>,8,0
final_results/44,1999261,11829,895,34501,537492,243592,8476,<not counted>,<not counted>,7492,882,0.191994883,37,<not counted>,<not counted>,1601,537492,243592,258,8,8,<not counted>,<not counted>,8,0
final_results/45,2826466,11829,895,34390,536933,243708,8686,<not counted>,<not counted>,7492,882,0.176081979,48,<not counted>,<not counted>,1602,536933,243708,263,11,11,<not counted>,<not counted>,11,0
final_results/46,1377263707,2515068,991,3189613,265484828,190712428,43881,66106,102442,2507956,978,0.468344930,33,125019,196450,82474,262101113,187814009,154696,8,8,0,192849160,7,0
final_results/47,2135676,11829,895,34722,538925,245005,8606,<not counted>,<not counted>,7492,882,0.197813720,36,<not counted>,<not counted>,1622,538925,245005,262,8,8,<not counted>,<not counted>,8,0
final_results/48,2180716,11829,895,34557,538736,244690,8864,<not counted>,<not counted>,7492,882,0.192480673,34,<not counted>,<not counted>,1635,538736,244690,266,8,8,<not counted>,<not counted>,8,0
final_results/49,2096821,11829,895,34626,538707,244403,8739,<not counted>,<not counted>,7492,882,0.191060151,40,<not counted>,<not counted>,1657,538707,244403,262,9,9,<not counted>,<not counted>,9,0
final_results/5,2080828,11829,895,34556,538754,244488,8704,<not counted>,<not counted>,7492,882,0.199463612,40,<not counted>,<not counted>,1640,538754,244488,266,9,9,<not counted>,<not counted>,9,0
final_results/50,2134225,11829,895,34611,539918,245042,8824,<not counted>,<not counted>,7492,882,0.191034538,46,<not counted>,<not counted>,1608,539918,245042,262,11,11,<not counted>,<not counted>,11,0
final_results/51,2230950,11829,895,34459,537658,244146,8696,<not counted>,<not counted>,7492,882,0.187595058,37,<not counted>,<not counted>,1626,537658,244146,262,8,8,<not counted>,<not counted>,8,0
final_results/52,2651094,11829,895,34456,538297,244341,8325,<not counted>,<not counted>,7492,882,0.181855528,42,<not counted>,<not counted>,1598,538297,244341,254,9,9,<not counted>,<not counted>,9,0
final_results/53,1674947,11829,895,34696,539533,245156,8821,<not counted>,<not counted>,7492,882,0.190936800,37,<not counted>,<not counted>,1687,539533,245156,262,8,8,<not counted>,<not counted>,8,0
final_results/54,1946874,11829,895,34654,539005,245088,8576,<not counted>,<not counted>,7492,882,0.177811495,52,<not counted>,<not counted>,1645,539005,245088,252,12,12,<not counted>,<not counted>,12,0
final_results/55,2558312,11829,895,34612,539872,245264,8575,<not counted>,<not counted>,7492,882,0.197381267,52,<not counted>,<not counted>,1592,539872,245264,256,11,11,<not counted>,<not counted>,11,0
final_results/56,1401285373,2515068,991,3200393,270417735,192314626,43553,52667,103097,2507956,978,0.461894414,46,128116,187562,82709,264117874,187899618,152335,11,11,0,192933711,10,0
final_results/57,2496206,11829,895,34322,537653,243554,8545,<not counted>,<not counted>,7492,882,0.188061130,40,<not counted>,<not counted>,1645,537653,243554,253,9,9,<not counted>,<not counted>,9,0
final_results/58,1399081948,2515068,991,3310889,270031057,192019821,43226,68488,109093,2507956,978,0.480803089,58,124660,203228,82604,263988885,188716505,153432,13,13,0,193239294,12,0
final_results/59,2385659,11829,895,34505,537800,243816,8453,<not counted>,<not counted>,7492,882,0.189509914,42,<not counted>,<not counted>,1647,537800,243816,258,10,10,<not counted>,<not counted>,10,0
final_results/6,1398178623,2515068,991,3205350,268803672,188821340,42476,107759,109230,2507956,978,0.489714767,55,137785,243323,83101,263278272,188407358,153521,15,15,0,192178259,12,0
final_results/60,1392217139,2515068,991,3168818,267610813,190326137,42837,74984,103240,2507956,978,0.487179965,34,129522,197329,84484,260999065,188121211,152195,8,8,0,193224872,7,0
final_results/61,2572706,11829,895,34463,538479,244244,8317,<not counted>,<not counted>,7492,882,0.197149627,36,<not counted>,<not counted>,1589,538479,244244,253,8,8,<not counted>,<not counted>,8,0
final_results/62,1293637,11829,895,34775,538178,245389,8855,<not counted>,<not counted>,7492,882,0.197879042,40,<not counted>,<not counted>,1642,540403,245389,256,9,9,<not counted>,<not counted>,9,0
final_results/63,2276220,11829,895,34487,533261,244413,8170,<not counted>,<not counted>,7492,882,0.187800090,53,<not counted>,<not counted>,1577,538672,244413,257,12,12,<not counted>,<not counted>,12,0
final_results/64,2089300,11829,895,34698,538086,244456,8638,<not counted>,<not counted>,7492,882,0.197036861,36,<not counted>,<not counted>,1606,538624,244456,263,8,8,<not counted>,<not counted>,8,0
final_results/65,2487870,11829,895,34593,539969,245379,8969,<not counted>,<not counted>,7492,882,0.197418133,38,<not counted>,<not counted>,1666,539969,245379,264,9,9,<not counted>,<not counted>,9,0
final_results/66,2247013,11829,895,34608,537753,243898,8842,<not counted>,<not counted>,7492,882,0.189482398,36,<not counted>,<not counted>,1617,538262,243898,251,8,8,<not counted>,<not counted>,8,0
final_results/67,2055995,11829,895,34543,538071,244502,8518,1957,<not counted>,7492,882,0.192029093,45,<not counted>,<not counted>,1600,538664,244502,253,10,10,<not counted>,<not counted>,10,0
final_results/68,1385902336,2515068,991,3119463,266315148,188894217,42754,101692,102391,2507956,978,0.461090098,51,135173,225066,83342,261786083,188754041,154268,11,11,0,192335316,10,0
final_results/69,2141222,11829,895,34598,539991,245431,8636,<not counted>,<not counted>,7492,882,0.190147345,49,<not counted>,<not counted>,1630,539991,245431,247,10,10,<not counted>,<not counted>,10,0
final_results/7,1384688767,2515068,991,3128905,264979579,188317318,42250,105352,103073,2507956,978,0.465155567,38,137720,235515,83095,261510784,188572342,154324,9,9,0,192407859,8,0
final_results/70,2238715,11829,895,34445,533208,244149,8307,3327,<not counted>,7492,882,0.205750365,36,<not counted>,<not counted>,1608,537761,244149,249,8,8,<not counted>,<not counted>,8,0
final_results/71,2903095,11829,895,34274,536889,243930,8720,<not counted>,<not counted>,7492,882,0.199466710,52,<not counted>,<not counted>,1633,536889,243930,267,13,13,<not counted>,<not counted>,13,0
final_results/72,1982699,11829,895,34590,536764,245343,8438,<not counted>,<not counted>,7492,882,0.197899884,40,<not counted>,<not counted>,1644,539863,245343,252,9,9,<not counted>,<not counted>,9,0
final_results/73,2414643,11829,895,34568,537682,243588,8590,<not counted>,<not counted>,7492,882,0.205346805,37,<not counted>,<not counted>,1608,537682,243588,258,8,8,<not counted>,<not counted>,8,0
final_results/74,2200536,11829,895,34562,539551,244866,8686,<not counted>,<not counted>,7492,882,0.207168216,38,<not counted>,<not counted>,1599,539551,244866,249,8,8,<not counted>,<not counted>,8,0
final_results/75,2299711,11829,895,34597,536635,245090,8408,<not counted>,<not counted>,7492,882,0.205111279,36,<not counted>,<not counted>,1605,539530,245090,256,8,8,<not counted>,<not counted>,8,0
final_results/76,1639500,11829,895,34604,529698,244019,8705,<not counted>,<not counted>,7492,882,0.206229627,47,<not counted>,<not counted>,1618,538237,244019,266,14,14,<not counted>,<not counted>,12,0
final_results/77,1959572,11829,895,34620,538844,244396,8622,<not counted>,<not counted>,7492,882,0.206437986,53,<not counted>,<not counted>,1591,538844,244396,268,12,12,<not counted>,<not counted>,12,0
final_results/78,2578595,11829,895,34567,532644,244319,8655,<not counted>,<not counted>,7492,882,0.197410159,33,<not counted>,<not counted>,1617,537977,244319,261,8,8,<not counted>,<not counted>,8,0
final_results/79,2036615,11829,895,34506,537292,244280,8509,<not counted>,<not counted>,7492,882,0.192861356,39,<not counted>,<not counted>,1594,538041,244280,261,9,9,<not counted>,<not counted>,9,0
final_results/8,2133781,11829,895,34530,539320,244729,8502,<not counted>,<not counted>,7492,882,0.174636619,39,<not counted>,<not counted>,1609,539320,244729,257,9,9,<not counted>,<not counted>,9,0
final_results/80,2437993,11829,895,34580,538523,245180,8780,<not counted>,<not counted>,7492,882,0.202067648,39,<not counted>,<not counted>,1630,538523,245180,267,9,9,<not counted>,<not counted>,9,0
final_results/81,1839348,11829,895,34837,540393,246188,8887,<not counted>,<not counted>,7492,882,0.207276896,35,<not counted>,<not counted>,1667,541104,246188,263,9,9,<not counted>,<not counted>,9,0
final_results/82,2585406,11829,895,34519,534510,244429,9046,<not counted>,<not counted>,7492,882,0.180746455,32,<not counted>,<not counted>,1647,538503,244429,260,8,8,<not counted>,<not counted>,8,0
final_results/83,1952967,11829,895,34495,537079,243576,8442,<not counted>,<not counted>,7492,882,0.195703471,36,<not counted>,<not counted>,1546,537079,243576,255,9,9,<not counted>,<not counted>,9,0
final_results/84,2293388,11829,895,34353,536838,243602,8327,<not counted>,<not counted>,7492,882,0.194576587,31,<not counted>,<not counted>,1605,537110,243602,257,8,8,<not counted>,<not counted>,8,0
final_results/85,2315743,11829,895,34379,537034,243565,8529,<not counted>,<not counted>,7492,882,0.198276718,66,<not counted>,<not counted>,1600,537034,243565,271,17,17,<not counted>,<not counted>,15,0
final_results/86,2132012,11829,895,34447,538839,244621,8316,<not counted>,<not counted>,7492,882,0.190767050,33,<not counted>,<not counted>,1564,539389,244621,251,10,10,<not counted>,<not counted>,8,0
final_results/87,1393361119,2515068,991,3086494,267401007,187009535,42146,120766,109645,2507956,978,0.465520690,34,143269,250495,85190,261148198,188888329,151059,11,11,0,192807931,8,0
final_results/88,2776367,11829,895,34248,537468,243893,8604,<not counted>,<not counted>,7492,882,0.185960309,36,<not counted>,<not counted>,1614,537468,243893,252,11,11,<not counted>,<not counted>,9,0
final_results/89,2270930,11829,895,34518,538173,244305,8389,<not counted>,<not counted>,7492,882,0.193473796,34,<not counted>,<not counted>,1601,538173,244305,257,9,9,<not counted>,<not counted>,9,0
final_results/9,1988475,11829,895,34623,535106,244135,8362,<not counted>,<not counted>,7492,882,0.197217425,38,<not counted>,<not counted>,1602,538740,244135,257,9,9,<not counted>,<not counted>,9,0
final_results/90,2192828,11829,895,34414,538117,244198,8261,<not counted>,<not counted>,7492,882,0.203830103,32,<not counted>,<not counted>,1583,538117,244198,253,8,8,<not counted>,<not counted>,8,0
final_results/91,1299497,11829,895,34401,537707,244099,8369,<not counted>,<not counted>,7492,882,0.189279220,42,<not counted>,<not counted>,1554,537707,244099,257,10,10,<not counted>,<not counted>,10,0
final_results/92,2221828,11829,895,34443,532106,243472,8532,<not counted>,<not counted>,7492,882,0.192981332,35,<not counted>,<not counted>,1553,536772,243472,268,9,9,<not counted>,<not counted>,9,0
final_results/93,2295915,11829,895,34433,538137,243969,8456,<not counted>,<not counted>,7492,882,0.198983356,32,<not counted>,<not counted>,1560,538137,243969,254,8,8,<not counted>,<not counted>,8,0
final_results/94,1976020,11829,895,34656,533074,244525,8671,<not counted>,<not counted>,7492,882,0.190687727,29,<not counted>,<not counted>,1612,538731,244525,268,7,7,<not counted>,<not counted>,7,0
final_results/95,2398076,11829,895,34338,537657,244043,8333,<not counted>,<not counted>,7492,882,0.185270766,64,<not counted>,<not counted>,1604,537657,244043,258,17,17,<not counted>,<not counted>,15,0
final_results/96,2264103,11829,895,34518,538286,244168,8573,<not counted>,<not counted>,7492,882,0.192007845,41,<not counted>,<not counted>,1579,538286,244168,252,10,10,<not counted>,<not counted>,10,0
final_results/97,1833536,11829,895,34502,539148,244685,8813,<not counted>,<not counted>,7492,882,0.181736174,39,<not counted>,<not counted>,1620,539148,244685,266,10,10,<not counted>,<not counted>,10,0
final_results/98,2081126,11829,895,34508,539238,244734,8614,<not counted>,<not counted>,7492,882,0.206194852,56,<not counted>,<not counted>,1590,539238,244734,261,12,12,<not counted>,<not counted>,12,0
final_results/99,2414858,11829,895,34320,536682,242832,8298,<not counted>,<not counted>,7492,882,0.199532172,36,<not counted>,<not counted>,1569,536682,242832,264,9,9,<not counted>,<not counted>,9,0
