Name,Cycles,D1misses,I1misses,L1-dcache-load-misses,L1-dcache-loads,L1-dcache-stores,L1-icache-load-misses,LLC-loads,LLC_stores,LLdmisses,LLimisses,Time,binsize,cache-misses,cache-references,dTLB-load-misses,dTLB-loads,dTLB-stores,dTLB_store_misses,latency,measured,mem-loads,mem-stores,size,sseavx
final_results/0,2620954,6589,2800,56780,698648,428400,22888,<not counted>,<not counted>,4548,2347,0.002631929,25,<not counted>,<not counted>,4737,698648,428400,775,8,8,<not counted>,<not counted>,12,0
final_results/1,2626490,6589,2800,57097,700336,429393,23097,<not counted>,<not counted>,4548,2347,0.002460189,10,<not counted>,<not counted>,4813,700336,429393,789,3,3,<not counted>,<not counted>,4,0
final_results/2,2405019,6589,2800,57022,700342,429280,23044,<not counted>,<not counted>,4548,2347,0.002746823,9,<not counted>,<not counted>,4776,700342,429280,818,11,11,<not counted>,<not counted>,4,0
final_results/3,2563887,6589,2800,56844,698630,427962,22915,<not counted>,<not counted>,4548,2347,0.002640011,8,<not counted>,<not counted>,4927,698630,427962,785,3,3,<not counted>,<not counted>,4,0
final_results/4,2299892,6589,2800,56824,700295,428573,22974,<not counted>,<not counted>,4548,2347,0.002665977,12,<not counted>,<not counted>,5130,700295,428573,788,3,3,<not counted>,<not counted>,4,0
final_results/5,2304552,6589,2800,56980,698602,428044,23004,<not counted>,<not counted>,4548,2347,0.002422697,9,<not counted>,<not counted>,5035,698602,428044,779,2,2,<not counted>,<not counted>,3,0
final_results/6,2474438,6589,2800,57166,699816,429198,23161,<not counted>,<not counted>,4548,2347,0.002768209,6,<not counted>,<not counted>,4964,699816,429198,827,1,1,<not counted>,<not counted>,2,0
final_results/7,2040139,6589,2800,57063,701153,429803,22716,<not counted>,<not counted>,4548,2347,0.002561813,13,<not counted>,<not counted>,4959,701153,429803,827,3,3,<not counted>,<not counted>,4,0
final_results/8,2284332,6589,2800,57170,699601,428993,23084,<not counted>,<not counted>,4548,2347,0.002711839,9,<not counted>,<not counted>,5180,699601,428993,767,2,2,<not counted>,<not counted>,3,0
final_results/9,2255929,6589,2800,57089,701114,429245,23076,<not counted>,<not counted>,4548,2347,0.002577998,15,<not counted>,<not counted>,5237,701114,429245,782,3,3,<not counted>,<not counted>,4,0
