Title,Name,p02,p04,p06,p08,p10,p12,p14,p16,p18,p20,p22,p24,parity,exp,montmul,p01,p03,p05,p07,p09,p11,p13,p15,p17,p19,p21,p23,p25,saxpy,tutorial
Cycles,Cycles,0,0,0,14.2857142857,0,20.6896551724,0,96.6292134831,45.0704225352,3.125,92.5,95.8333333333,97.3333333333,75.4385964912,31.6666666667,66.6666666667,84.2105263158,0,33.3333333333,74.1935483871,38.2352941176,30.4347826087,0,0,53.0612244898,85.8064516129,85.2564102564,72.9032258065,23.4285714286,60
L1-Misses,L1-dcache-load-misses,0,0,0,47.619047619,0,72.4137931034,16.6666666667,86.5168539326,70.4225352113,15.625,49.1666666667,80.5555555556,43.4210526316,43.8596491228,53.3333333333,33.3333333333,68.4210526316,0,88.8888888889,90.3225806452,17.6470588235,17.3913043478,5.8823529412,0,85.7142857143,27.7419354839,13.4615384615,28.3870967742,11.4285714286,80
L3-Misses,cache-misses,0,0,0,76.1904761905,0,0,75,87.6404494382,76.0563380282,96.875,72.5,34.7222222222,28.9473684211,76.5957446809,51.6666666667,0,5.2631578947,0,77.7777777778,29.0322580645,94.1176470588,47.8260869565,64.7058823529,0,81.6326530612,94.1935483871,94.2307692308,12.9032258065,82.0512820513,inf
Latency,latency,0,0,0,4.7619047619,0,37.9310344828,41.6666666667,85.393258427,94.3661971831,0,88.3333333333,73.6111111111,84.2105263158,75.4385964912,30,0,0,0,0,58.064516129,0,0,5.8823529412,0,57.1428571429,4.5161290323,49.358974359,91.6129032258,45.1428571429,0
BinSize,binsize,0,0,0,23.8095238095,0,17.2413793103,41.6666666667,22.4719101124,98.5915492958,96.875,83.3333333333,75,50,17.5438596491,18.3333333333,0,15.7894736842,0,50,61.2903225806,17.6470588235,47.8260869565,52.9411764706,0,48.9795918367,45.1612903226,71.1538461538,82.5806451613,98.8571428571,50
Size,size,0,0,4.7619047619,0,37.9310344828,41.6666666667,85.393258427,94.3661971831,40.625,88.3333333333,73.6111111111,59.2105263158,50.8771929825,66.6666666667,0,0,0,0,58.064516129,0,0,5.8823529412,0,44.8979591837,75.4838709677,10.2564102564,91.6129032258,41.1428571429,10,
Time,Time,0,0,0,95.2380952381,0,96.5517241379,95.8333333333,98.8764044944,98.5915492958,96.875,99.1666666667,98.6111111111,98.6842105263,96.4912280702,98.3333333333,66.6666666667,94.7368421053,0,94.4444444444,96.7741935484,97.0588235294,95.652173913,94.1176470588,0,97.9591836735,99.3548387097,99.358974359,99.3548387097,99.4285714286,90
