Name,A_sample_count,Cycles,D1misses,I1misses,L1-dcache-load-misses,L1-dcache-loads,L1-dcache-stores,L1-icache-load-misses,LLC-loads,LLC_stores,LLdmisses,LLimisses,Time,binsize,cache-misses,cache-references,dTLB-load-misses,dTLB-loads,dTLB-stores,dTLB_store_misses,latency,measured,mem-loads,mem-stores,size,sseavx
p02,1,0.0,0.0,0.0,0.0,0.0,0.0,0.0,0.0,0.0,0.0,0.0,0.0,,0.0,0.0,0.0,0.0,0.0,0.0,,,0.0,0.0,,
p04,1,0.0,0.0,0.0,0.0,0.0,0.0,0.0,0.0,0.0,0.0,0.0,0.0,0.0,0.0,0.0,0.0,0.0,0.0,0.0,0.0,0.0,0.0,0.0,0.0,0.0
p06,1,0.0,0.0,0.0,0.0,0.0,0.0,0.0,0.0,0.0,0.0,0.0,0.0,0.0,0.0,0.0,0.0,0.0,0.0,0.0,0.0,0.0,0.0,0.0,0.0,0.0
p08,21,14.285714285714285,0.0,0.0,47.619047619047613,23.809523809523807,9.5238095238095237,19.047619047619047,76.19047619047619,66.666666666666657,0.0,0.0,95.238095238095227,23.809523809523807,76.19047619047619,76.19047619047619,23.809523809523807,19.047619047619047,76.19047619047619,52.380952380952387,4.7619047619047619,4.7619047619047619,0.0,5.2631578947368416,4.7619047619047619,0.0
p10,1,0.0,0.0,0.0,0.0,0.0,0.0,0.0,0.0,0.0,0.0,0.0,0.0,0.0,0.0,0.0,0.0,0.0,0.0,0.0,0.0,0.0,0.0,0.0,0.0,0.0
p12,29,20.689655172413794,0.0,0.0,72.41379310344827,44.827586206896555,79.310344827586206,89.65517241379311,0.0,0.0,0.0,0.0,96.551724137931032,17.241379310344829,0.0,13.793103448275861,0.0,17.241379310344829,3.4482758620689653,0.0,37.931034482758619,37.931034482758619,0.0,82.758620689655174,37.931034482758619,0.0
p14,24,0.0,0.0,0.0,16.666666666666664,4.1666666666666661,41.666666666666671,50.0,79.166666666666657,91.666666666666657,0.0,0.0,95.833333333333343,70.833333333333343,75.0,58.333333333333336,50.0,79.166666666666657,29.166666666666668,20.833333333333336,41.666666666666671,41.666666666666671,0.0,0.0,41.666666666666671,0.0
p16,89,96.629213483146074,0.0,0.0,86.516853932584269,60.674157303370791,88.764044943820224,64.044943820224717,12.359550561797752,70.786516853932582,0.0,0.0,98.876404494382015,71.590909090909093,87.640449438202253,77.528089887640448,34.831460674157306,10.112359550561797,49.438202247191008,42.696629213483142,86.36363636363636,86.36363636363636,0.0,78.651685393258433,86.36363636363636,0.0
p18,71,45.070422535211272,0.0,0.0,70.422535211267601,23.943661971830984,63.380281690140848,76.056338028169009,49.295774647887328,74.647887323943664,0.0,0.0,98.591549295774655,98.591549295774655,76.056338028169009,91.549295774647888,57.74647887323944,52.112676056338024,35.2112676056338,61.971830985915489,94.366197183098592,94.366197183098592,0.0,78.873239436619713,94.366197183098592,0.0
p20,32,96.875,0.0,0.0,15.625,9.375,9.375,0.0,96.875,96.875,0.0,0.0,96.875,96.875,96.875,96.875,21.875,43.75,96.875,56.25,0.0,0.0,0.0,18.75,0.0,0.0
p22,120,92.5,0.83333333333333337,0.83333333333333337,49.166666666666664,32.5,38.333333333333336,29.166666666666668,60.0,73.333333333333329,0.83333333333333337,0.83333333333333337,99.166666666666671,85.0,72.5,61.666666666666671,70.833333333333343,19.166666666666668,83.333333333333343,85.833333333333329,87.5,87.5,0.0,20.353982300884958,87.5,0.0
p24,72,95.833333333333343,0.0,0.0,80.555555555555557,26.388888888888889,29.166666666666668,12.5,59.722222222222221,18.055555555555554,0.0,0.0,98.611111111111114,75.0,34.722222222222221,65.277777777777786,52.777777777777779,27.777777777777779,97.222222222222214,40.277777777777779,73.611111111111114,73.611111111111114,0.0,27.777777777777779,73.611111111111114,0.0
parity,76,97.333333333333343,0.0,44.736842105263158,94.73684210526315,94.73684210526315,68.421052631578945,97.368421052631575,1.4084507042253522,0.0,0.0,44.736842105263158,98.68421052631578,50.0,2.6315789473684208,2.1739130434782608,97.368421052631575,52.631578947368418,5.2631578947368416,63.157894736842103,98.68421052631578,98.68421052631578,0.0,76.0,93.421052631578945,0.0
exp,57,96.428571428571431,0.0,0.0,82.142857142857139,71.428571428571431,73.214285714285708,85.714285714285708,80.357142857142861,94.444444444444443,0.0,0.0,98.214285714285708,52.631578947368418,63.04347826086957,37.254901960784316,73.214285714285708,62.5,98.214285714285708,82.142857142857139,50.877192982456144,50.877192982456144,0.0,84.375,50.877192982456144,0.0
montmul,60,31.666666666666664,0.0,0.0,53.333333333333336,5.0,23.333333333333332,10.0,51.666666666666671,80.0,0.0,0.0,98.333333333333329,18.333333333333332,51.666666666666671,76.666666666666671,1.6666666666666667,6.666666666666667,8.3333333333333321,6.666666666666667,70.0,70.0,0.0,25.0,13.333333333333334,0.0
p01,3,66.666666666666657,0.0,0.0,33.333333333333329,66.666666666666657,66.666666666666657,66.666666666666657,0.0,33.333333333333329,0.0,0.0,66.666666666666657,0.0,0.0,0.0,66.666666666666657,0.0,33.333333333333329,0.0,0.0,0.0,0.0,33.333333333333329,0.0,0.0
p03,19,84.210526315789465,0.0,0.0,68.421052631578945,84.210526315789465,89.473684210526315,89.473684210526315,10.526315789473683,5.2631578947368416,0.0,0.0,94.73684210526315,52.631578947368418,5.2631578947368416,10.526315789473683,47.368421052631575,57.894736842105267,0.0,5.2631578947368416,0.0,0.0,0.0,94.117647058823522,0.0,0.0
p05,1,0.0,0.0,0.0,0.0,0.0,0.0,0.0,0.0,0.0,0.0,0.0,0.0,0.0,0.0,0.0,0.0,0.0,0.0,0.0,0.0,0.0,0.0,0.0,0.0,0.0
p07,18,33.333333333333329,0.0,0.0,88.888888888888886,44.444444444444443,38.888888888888893,33.333333333333329,66.666666666666657,94.444444444444443,0.0,0.0,94.444444444444443,55.555555555555557,77.777777777777786,55.555555555555557,44.444444444444443,5.5555555555555554,44.444444444444443,27.777777777777779,0.0,0.0,0.0,35.294117647058826,0.0,0.0
p09,31,74.193548387096769,0.0,0.0,90.322580645161281,35.483870967741936,96.774193548387103,96.774193548387103,0.0,0.0,0.0,0.0,96.774193548387103,77.41935483870968,29.032258064516132,22.58064516129032,0.0,64.516129032258064,0.0,3.225806451612903,58.064516129032263,58.064516129032263,0.0,83.870967741935488,58.064516129032263,0.0
p11,34,38.235294117647058,0.0,0.0,17.647058823529413,44.117647058823529,8.8235294117647065,11.76470588235294,73.529411764705884,64.705882352941174,0.0,0.0,97.058823529411768,17.647058823529413,94.117647058823522,73.529411764705884,29.411764705882355,44.117647058823529,79.411764705882348,50.0,0.0,0.0,0.0,73.529411764705884,0.0,0.0
p13,23,30.434782608695656,0.0,0.0,17.391304347826086,30.434782608695656,21.739130434782609,47.826086956521742,52.173913043478258,43.478260869565219,0.0,0.0,95.652173913043484,56.521739130434781,47.826086956521742,60.869565217391312,21.739130434782609,52.173913043478258,30.434782608695656,73.91304347826086,0.0,0.0,0.0,47.619047619047613,0.0,0.0
p15,17,0.0,0.0,0.0,5.8823529411764701,0.0,64.705882352941174,70.588235294117652,11.76470588235294,35.294117647058826,0.0,0.0,94.117647058823522,70.588235294117652,64.705882352941174,29.411764705882355,94.117647058823522,94.117647058823522,52.941176470588239,17.647058823529413,5.8823529411764701,5.8823529411764701,0.0,5.8823529411764701,5.8823529411764701,0.0
p17,1,0.0,0.0,0.0,0.0,0.0,0.0,0.0,0.0,0.0,0.0,0.0,0.0,0.0,0.0,0.0,0.0,0.0,0.0,0.0,0.0,0.0,0.0,0.0,0.0,0.0
p19,49,53.061224489795919,0.0,0.0,85.714285714285708,42.857142857142854,22.448979591836736,67.346938775510196,61.224489795918366,57.142857142857139,0.0,0.0,97.959183673469383,48.979591836734691,81.632653061224488,77.551020408163268,0.0,20.408163265306122,0.0,4.0816326530612246,83.673469387755105,83.673469387755105,0.0,93.877551020408163,16.326530612244898,0.0
p21,155,85.806451612903217,1.2903225806451613,1.2903225806451613,27.741935483870968,72.258064516129025,19.35483870967742,58.709677419354833,54.838709677419352,90.967741935483872,1.2903225806451613,1.2903225806451613,99.354838709677423,45.454545454545453,94.193548387096769,37.41935483870968,1.2903225806451613,16.129032258064516,39.354838709677423,36.774193548387096,85.714285714285708,85.714285714285708,0.0,58.709677419354833,66.883116883116884,0.0
p23,156,85.256410256410248,0.0,0.0,13.461538461538462,16.666666666666664,32.051282051282051,35.256410256410255,65.384615384615387,57.051282051282051,0.0,0.0,99.358974358974365,99.350649350649363,94.230769230769226,59.615384615384613,75.0,60.256410256410255,92.948717948717956,89.743589743589752,99.350649350649363,99.350649350649363,0.0,6.0810810810810816,99.350649350649363,0.0
p25,155,72.903225806451616,0.0,0.0,28.387096774193548,10.32258064516129,85.806451612903217,95.483870967741936,10.967741935483872,11.612903225806452,0.0,0.0,99.354838709677423,86.36363636363636,12.903225806451612,31.612903225806448,32.903225806451616,92.903225806451616,7.096774193548387,31.612903225806448,79.870129870129873,79.870129870129873,0.0,11.612903225806452,88.311688311688314,0.0
saxpy,175,99.428571428571431,78.857142857142861,78.857142857142861,89.142857142857139,98.857142857142861,86.285714285714292,98.285714285714292,95.348837209302332,97.435897435897431,78.857142857142861,78.857142857142861,99.428571428571431,98.857142857142861,82.051282051282044,92.307692307692307,92.571428571428569,98.285714285714292,98.857142857142861,90.285714285714278,98.285714285714292,98.285714285714292,0.0,89.743589743589752,98.285714285714292,0.0
tutorial,10,60.0,0.0,0.0,80.0,40.0,50.0,90.0,inf,inf,0.0,0.0,90.0,0.0,inf,inf,50.0,40.0,50.0,80.0,0.0,0.0,inf,inf,0.0,0.0
