Name,p02,p04,p06,p08,p10,p12,p14,p16,p18,p20,p22,p24,parity,exp,montmul,p01,p03,p05,p07,p09,p11,p13,p15,p17,p19,p21,p23,p25,saxpy,tutorial
A_sample_count,1,1,1,21,1,29,24,89,71,32,120,72,76,57,60,3,19,1,18,31,34,23,17,1,49,155,156,155,175,10
Cycles,0,0,0,14.2857142857,0,20.6896551724,0,96.6292134831,45.0704225352,96.875,92.5,95.8333333333,97.3333333333,96.4285714286,31.6666666667,66.6666666667,84.2105263158,0,33.3333333333,74.1935483871,38.2352941176,30.4347826087,0,0,53.0612244898,85.8064516129,85.2564102564,72.9032258065,99.4285714286,60
D1misses,0,0,0,0,0,0,0,0,0,0,0.8333333333,0,0,0,0,0,0,0,0,0,0,0,0,0,0,1.2903225806,0,0,78.8571428571,0
I1misses,0,0,0,0,0,0,0,0,0,0,0.8333333333,0,44.7368421053,0,0,0,0,0,0,0,0,0,0,0,0,1.2903225806,0,0,78.8571428571,0
L1-dcache-load-misses,0,0,0,47.619047619,0,72.4137931034,16.6666666667,86.5168539326,70.4225352113,15.625,49.1666666667,80.5555555556,94.7368421053,82.1428571429,53.3333333333,33.3333333333,68.4210526316,0,88.8888888889,90.3225806452,17.6470588235,17.3913043478,5.8823529412,0,85.7142857143,27.7419354839,13.4615384615,28.3870967742,89.1428571429,80
L1-dcache-loads,0,0,0,23.8095238095,0,44.8275862069,4.1666666667,60.6741573034,23.9436619718,9.375,32.5,26.3888888889,94.7368421053,71.4285714286,5,66.6666666667,84.2105263158,0,44.4444444444,35.4838709677,44.1176470588,30.4347826087,0,0,42.8571428571,72.2580645161,16.6666666667,10.3225806452,98.8571428571,40
L1-dcache-stores,0,0,0,9.5238095238,0,79.3103448276,41.6666666667,88.7640449438,63.3802816901,9.375,38.3333333333,29.1666666667,68.4210526316,73.2142857143,23.3333333333,66.6666666667,89.4736842105,0,38.8888888889,96.7741935484,8.8235294118,21.7391304348,64.7058823529,0,22.4489795918,19.3548387097,32.0512820513,85.8064516129,86.2857142857,50
L1-icache-load-misses,0,0,0,19.0476190476,0,89.6551724138,50,64.0449438202,76.0563380282,0,29.1666666667,12.5,97.3684210526,85.7142857143,10,66.6666666667,89.4736842105,0,33.3333333333,96.7741935484,11.7647058824,47.8260869565,70.5882352941,0,67.3469387755,58.7096774194,35.2564102564,95.4838709677,98.2857142857,90
LLC-loads,0,0,0,76.1904761905,0,0,79.1666666667,12.3595505618,49.2957746479,96.875,60,59.7222222222,1.4084507042,80.3571428571,51.6666666667,0,10.5263157895,0,66.6666666667,0,73.5294117647,52.1739130435,11.7647058824,0,61.2244897959,54.8387096774,65.3846153846,10.9677419355,95.3488372093,inf
LLC_stores,0,0,0,66.6666666667,0,0,91.6666666667,70.7865168539,74.6478873239,96.875,73.3333333333,18.0555555556,0,94.4444444444,80,33.3333333333,5.2631578947,0,94.4444444444,0,64.7058823529,43.4782608696,35.2941176471,0,57.1428571429,90.9677419355,57.0512820513,11.6129032258,97.4358974359,inf
LLdmisses,0,0,0,0,0,0,0,0,0,0,0.8333333333,0,0,0,0,0,0,0,0,0,0,0,0,0,0,1.2903225806,0,0,78.8571428571,0
LLimisses,0,0,0,0,0,0,0,0,0,0,0.8333333333,0,44.7368421053,0,0,0,0,0,0,0,0,0,0,0,0,1.2903225806,0,0,78.8571428571,0
Time,0,0,0,95.2380952381,0,96.5517241379,95.8333333333,98.8764044944,98.5915492958,96.875,99.1666666667,98.6111111111,98.6842105263,98.2142857143,98.3333333333,66.6666666667,94.7368421053,0,94.4444444444,96.7741935484,97.0588235294,95.652173913,94.1176470588,0,97.9591836735,99.3548387097,99.358974359,99.3548387097,99.4285714286,90
binsize,0,0,0,23.8095238095,0,17.2413793103,70.8333333333,71.5909090909,98.5915492958,96.875,85,75,50,52.6315789474,18.3333333333,0,52.6315789474,0,55.5555555556,77.4193548387,17.6470588235,56.5217391304,70.5882352941,0,48.9795918367,45.4545454545,99.3506493506,86.3636363636,98.8571428571,0
cache-misses,0,0,0,76.1904761905,0,0,75,87.6404494382,76.0563380282,96.875,72.5,34.7222222222,2.6315789474,63.0434782609,51.6666666667,0,5.2631578947,0,77.7777777778,29.0322580645,94.1176470588,47.8260869565,64.7058823529,0,81.6326530612,94.1935483871,94.2307692308,12.9032258065,82.0512820513,inf
cache-references,0,0,0,76.1904761905,0,13.7931034483,58.3333333333,77.5280898876,91.5492957746,96.875,61.6666666667,65.2777777778,2.1739130435,37.2549019608,76.6666666667,0,10.5263157895,0,55.5555555556,22.5806451613,73.5294117647,60.8695652174,29.4117647059,0,77.5510204082,37.4193548387,59.6153846154,31.6129032258,92.3076923077,inf
dTLB-load-misses,0,0,0,23.8095238095,0,0,50,34.8314606742,57.7464788732,21.875,70.8333333333,52.7777777778,97.3684210526,73.2142857143,1.6666666667,66.6666666667,47.3684210526,0,44.4444444444,0,29.4117647059,21.7391304348,94.1176470588,0,0,1.2903225806,75,32.9032258065,92.5714285714,50
dTLB-loads,0,0,0,19.0476190476,0,17.2413793103,79.1666666667,10.1123595506,52.1126760563,43.75,19.1666666667,27.7777777778,52.6315789474,62.5,6.6666666667,0,57.8947368421,0,5.5555555556,64.5161290323,44.1176470588,52.1739130435,94.1176470588,0,20.4081632653,16.1290322581,60.2564102564,92.9032258065,98.2857142857,40
dTLB-stores,0,0,0,76.1904761905,0,3.4482758621,29.1666666667,49.4382022472,35.2112676056,96.875,83.3333333333,97.2222222222,5.2631578947,98.2142857143,8.3333333333,33.3333333333,0,0,44.4444444444,0,79.4117647059,30.4347826087,52.9411764706,0,0,39.3548387097,92.9487179487,7.0967741935,98.8571428571,50
dTLB_store_misses,0,0,0,52.380952381,0,0,20.8333333333,42.6966292135,61.9718309859,56.25,85.8333333333,40.2777777778,63.1578947368,82.1428571429,6.6666666667,0,5.2631578947,0,27.7777777778,3.2258064516,50,73.9130434783,17.6470588235,0,4.0816326531,36.7741935484,89.7435897436,31.6129032258,90.2857142857,80
latency,0,0,0,4.7619047619,0,37.9310344828,41.6666666667,86.3636363636,94.3661971831,0,87.5,73.6111111111,98.6842105263,50.8771929825,70,0,0,0,0,58.064516129,0,0,5.8823529412,0,83.6734693878,85.7142857143,99.3506493506,79.8701298701,98.2857142857,0
measured,,0,0,4.7619047619,0,37.9310344828,41.6666666667,86.3636363636,94.3661971831,0,87.5,73.6111111111,98.6842105263,50.8771929825,70,0,0,0,0,58.064516129,0,0,5.8823529412,0,83.6734693878,85.7142857143,99.3506493506,79.8701298701,98.2857142857,0
mem-loads,,0,0,0,0,0,0,0,0,0,0,0,0,0,0,0,0,0,0,0,0,0,0,0,0,0,0,0,0,inf
mem-stores,,0,0,5.2631578947,0,82.7586206897,0,78.6516853933,78.8732394366,18.75,20.3539823009,27.7777777778,76,84.375,25,33.3333333333,94.1176470588,0,35.2941176471,83.8709677419,73.5294117647,47.619047619,5.8823529412,0,93.8775510204,58.7096774194,6.0810810811,11.6129032258,89.7435897436,inf
size,,0,0,4.7619047619,0,37.9310344828,41.6666666667,86.3636363636,94.3661971831,0,87.5,73.6111111111,93.4210526316,50.8771929825,13.3333333333,0,0,0,0,58.064516129,0,0,5.8823529412,0,16.3265306122,66.8831168831,99.3506493506,88.3116883117,98.2857142857,0
sseavx,,0,0,0,0,0,0,0,0,0,0,0,0,0,0,0,0,0,0,0,0,0,0,0,0,0,0,0,0,0
